bin/enpoint/transaction/tester.vcd
$date
	Tue Jan 23 02:52:35 2018
$end
$version
	Icarus Verilog
$end
$timescale
	1s
$end
$scope module tester $end
$var wire 5 ! sum_crc [4:0] $end
$var wire 1048 " wdata_out [1047:0] $end
$var wire 8 # wtoken_out [7:0] $end
$var reg 7 $ addr [6:0] $end
$var reg 5 % crc_cero [4:0] $end
$var reg 4 & endp [3:0] $end
$var reg 8 ' pid [7:0] $end
$var reg 8 ( pid2 [7:0] $end
$var reg 1 ) rbusy $end
$var reg 1 * rclk $end
$var reg 1048 + rdata [1047:0] $end
$var reg 1 , rrst $end
$var reg 89 - rsetup_data [88:0] $end
$var reg 8 . rsync [7:0] $end
$var reg 32 / rsync2 [31:0] $end
$var reg 24 0 rtoken [23:0] $end
$var reg 64 1 setup_mesage [63:0] $end
$scope module CRC5_D11_intance2 $end
$var wire 11 2 Data [10:0] $end
$var wire 5 3 crc [4:0] $end
$var reg 5 4 c [4:0] $end
$var reg 11 5 d [10:0] $end
$var reg 5 6 newcrc [4:0] $end
$var reg 5 7 nextCRC5_D11 [4:0] $end
$upscope $end
$scope module TS_instance $end
$var wire 7 8 addr1 [6:0] $end
$var wire 1 9 busy $end
$var wire 1 : clk $end
$var wire 1048 ; data [1047:0] $end
$var wire 64 < data1 [63:0] $end
$var wire 1 = data_error $end
$var wire 4 > endp1 [3:0] $end
$var wire 1 ? err1 $end
$var wire 8 @ pid1 [7:0] $end
$var wire 1 A rst $end
$var wire 89 B setup_data [88:0] $end
$var wire 8 C sync [7:0] $end
$var wire 32 D sync2 [31:0] $end
$var wire 24 E token [23:0] $end
$var reg 7 F Myaddr [6:0] $end
$var reg 7 G addr [6:0] $end
$var reg 1048 H data_out [1047:0] $end
$var reg 64 I dato_atual [63:0] $end
$var reg 1 J dato_par $end
$var reg 32 K funcion_enpoints_in [31:0] $end
$var reg 32 L funcion_enpoints_out [31:0] $end
$var reg 32 M halted_enpoints_in [31:0] $end
$var reg 32 N halted_enpoints_out [31:0] $end
$var reg 4 O last_token [3:0] $end
$var reg 5 P next_state [4:0] $end
$var reg 2 Q speed [1:0] $end
$var reg 1 R startControl $end
$var reg 5 S state [4:0] $end
$var reg 8 T token_out [7:0] $end
$scope module token_in_intance $end
$var wire 24 U data [23:0] $end
$var wire 5 V sum_crc [4:0] $end
$var reg 7 W addr [6:0] $end
$var reg 5 X crc1 [4:0] $end
$var reg 5 Y crcBASE [4:0] $end
$var reg 4 Z endp [3:0] $end
$var reg 1 [ err $end
$var reg 1 \ error $end
$var reg 1 ] in $end
$var reg 8 ^ pid [7:0] $end
$scope module CRC5_D11_intance $end
$var wire 11 _ Data [10:0] $end
$var wire 5 ` crc [4:0] $end
$var reg 5 a c [4:0] $end
$var reg 11 b d [10:0] $end
$var reg 5 c newcrc [4:0] $end
$var reg 5 d nextCRC5_D11 [4:0] $end
$upscope $end
$upscope $end
$scope module Data_set_up_pack_intance $end
$var wire 16 e crc [15:0] $end
$var wire 89 f packet [88:0] $end
$var reg 16 g crc_initial [15:0] $end
$var reg 64 h data [63:0] $end
$var reg 1 i data_error $end
$scope module CRC16_D64_intance $end
$var wire 64 j Data [63:0] $end
$var wire 16 k crc [15:0] $end
$var reg 16 l c [15:0] $end
$var reg 64 m d [63:0] $end
$var reg 16 n newcrc [15:0] $end
$var reg 16 o nextCRC16_D64 [15:0] $end
$upscope $end
$upscope $end
$upscope $end
$upscope $end
$enddefinitions $end
#0
$dumpvars
bx o
bx n
bx m
bx l
bx k
bx j
xi
bx h
bx g
bx f
bx e
bx d
bx c
bx b
b0 a
b0 `
bx _
bx ^
x]
x\
x[
bx Z
b0 Y
bx X
bx W
bx V
bx U
bx T
bx S
xR
bx Q
bx P
bx O
bx N
bx M
bx L
bx K
xJ
bx I
bx H
bx G
bx F
bx E
bx D
bx C
bx B
1A
bx @
x?
bx >
x=
bx <
bx ;
0:
09
bx 8
bx 7
bx 6
bx 5
b0 4
b0 3
bx 2
bx 1
bx 0
bx /
bx .
bx -
1,
bx +
0*
0)
bx (
bx '
bx &
b0 %
bx $
bx #
bx "
bx !
$end
#1
b0 L
b0 K
b0 N
b0 M
b1111111 F
b0 T
b0 #
0R
1*
1:
#2
b1 S
0*
0:
#3
b1 P
1*
1:
#4
0*
0:
#5
b11100 X
bx n
b0 l
b0xxxxxxxxxxxxxxxxxxxxxxxxxxxxxxxxxxxxxxxxxxxxxxxxxxxxxxxxxxxxxxx m
b11100 7
b11100 !
b11100 6
b11111110000 5
b11100 d
b11100 V
b11100 c
b11111110000 b
b0xxxxxxxxxxxxxxxxxxxxxxxxxxxxxxxxxxxxxxxxxxxxxxxxxxxxxxxxxxxxxxx j
b0xxxxxxxxxxxxxxxxxxxxxxxxxxxxxxxxxxxxxxxxxxxxxxxxxxxxxxxxxxxxxxx h
b0xxxxxxxxxxxxxxxxxxxxxxxxxxxxxxxxxxxxxxxxxxxxxxxxxxxxxxxxxxxxxxx <
b0 g
b0 k
1i
1=
b11111110000 2
b11111110000 _
b0 Z
b0 >
b1111111 W
b1111111 8
b11010010 ^
b11010010 @
0\
b10 P
b1 Q
b0xxxxxxxx0xxxxxxxxxxxxxxxxxxxxxxxxxxxxxxxxxxxxxxxxxxxxxxxxxxxxxxxxxxxxxxxx000000000000000 -
b0xxxxxxxx0xxxxxxxxxxxxxxxxxxxxxxxxxxxxxxxxxxxxxxxxxxxxxxxxxxxxxxxxxxxxxxxx000000000000000 B
b0xxxxxxxx0xxxxxxxxxxxxxxxxxxxxxxxxxxxxxxxxxxxxxxxxxxxxxxxxxxxxxxxxxxxxxxxx000000000000000 f
b110100101111111000011100 0
b110100101111111000011100 E
b110100101111111000011100 U
1*
1:
b0 &
b1111111 $
b11010010 '
b1010100 .
b1010100 C
0,
0A
#6
b10 S
0*
0:
#7
b11 P
b1111111 G
1*
1:
#8
b11 S
0*
0:
#9
b111 P
1*
1:
#10
b111 S
0*
0:
#11
b1 P
b1101 O
1*
1:
#12
b1000000000010001 o
b1000000000010001 e
b1000000000010001 n
b111 m
b111 j
b111 h
b111 <
b111100 ^
b111100 @
b11110000000000000000000000000000000000000000000000000000000000000001111000000000000000 -
b11110000000000000000000000000000000000000000000000000000000000000001111000000000000000 B
b11110000000000000000000000000000000000000000000000000000000000000001111000000000000000 f
b1111001111111000011100 0
b1111001111111000011100 E
b1111001111111000011100 U
b1 S
0*
0:
b111100 (
b111100 '
b1111 1
#13
b10 P
1*
1:
#14
b10 S
0*
0:
#15
b11 P
1*
1:
#16
b11 S
0*
0:
#17
b1011 P
1J
1*
1:
#18
b1011 S
0*
0:
#19
b110 P
b111 I
1*
1:
#20
b110 S
0*
0:
#21
b1 P
b10 T
b10 #
1*
1:
#22
b1 S
0*
0:
#23
b10 P
b0 T
b0 #
1*
1:
#24
b10 S
0*
0:
#25
b11 P
1*
1:
#26
b11 S
0*
0:
#27
b1011 P
1*
1:
#28
b1011 S
0*
0:
#29
b110 P
1*
1:
#30
b110 S
0*
0:
#31
b1 P
b10 T
b10 #
1*
1:
#32
b1 S
0*
0:
#33
b10 P
b0 T
b0 #
1*
1:
#34
b10 S
0*
0:
#35
b11 P
1*
1:
#36
b11 S
0*
0:
#37
b1011 P
1*
1:
#38
b1011 S
0*
0:
#39
b110 P
1*
1:
#40
b110 S
0*
0:
#41
b1 P
b10 T
b10 #
1*
1:
#42
b1 S
0*
0:
#43
b10 P
b0 T
b0 #
1*
1:
#44
b10 S
0*
0:
#45
b11 P
1*
1:
#46
b11 S
0*
0:
#47
b1011 P
1*
1:
#48
b1011 S
0*
0:
#49
b110 P
1*
1:
#50
b110 S
0*
0:
#51
b1 P
b10 T
b10 #
1*
1:
#52
b1 S
0*
0:
#53
b10 P
b0 T
b0 #
1*
1:
#54
b10 S
0*
0:
#55
b11 P
1*
1:
#56
b11 S
0*
0:
#57
b1011 P
1*
1:
#58
b1011 S
0*
0:
#59
b110 P
1*
1:
#60
b110 S
0*
0:
#61
b1 P
b10 T
b10 #
1*
1:
#62
b1 S
0*
0:
#63
b10 P
b0 T
b0 #
1*
1:
#64
b10 S
0*
0:
#65
b11 P
1*
1:
#66
b11 S
0*
0:
#67
b1011 P
1*
1:
#68
b1011 S
0*
0:
#69
b110 P
1*
1:
#70
b110 S
0*
0:
#71
b1 P
b10 T
b10 #
1*
1:
#72
b1 S
0*
0:
#73
b10 P
b0 T
b0 #
1*
1:
#74
b10 S
0*
0:
#75
b11 P
1*
1:
#76
b11 S
0*
0:
#77
b1011 P
1*
1:
#78
b1011 S
0*
0:
#79
b110 P
1*
1:
#80
b110 S
0*
0:
#81
b1 P
b10 T
b10 #
1*
1:
#82
b1 S
0*
0:
#83
b10 P
b0 T
b0 #
1*
1:
#84
b10 S
0*
0:
#85
b11 P
1*
1:
#86
b11 S
0*
0:
#87
b1011 P
1*
1:
#88
b1011 S
0*
0:
#89
b110 P
1*
1:
#90
b110 S
0*
0:
#91
b1 P
b10 T
b10 #
1*
1:
#92
b1 S
0*
0:
#93
b10 P
b0 T
b0 #
1*
1:
#94
b10 S
0*
0:
#95
b11 P
1*
1:
#96
b11 S
0*
0:
#97
b1011 P
1*
1:
#98
b1011 S
0*
0:
#99
b110 P
1*
1:
#100
b110 S
0*
0:
#101
b1 P
b10 T
b10 #
1*
1:
#102
b1 S
0*
0:
#103
b10 P
b0 T
b0 #
1*
1:
#104
b10 S
0*
0:
#105
b11 P
1*
1:
#106
b11 S
0*
0:
#107
b1011 P
1*
1:
#108
b1011 S
0*
0:
#109
b110 P
1*
1:
#110
b110 S
0*
0:
#111
b1 P
b10 T
b10 #
1*
1:
#112
b1 S
0*
0:
#113
b10 P
b0 T
b0 #
1*
1:
#114
b10 S
0*
0:
#115
b11 P
1*
1:
#116
b11 S
0*
0:
#117
b1011 P
1*
1:
#118
b1011 S
0*
0:
#119
b110 P
1*
1:
#120
b110 S
0*
0:
#121
b1 P
b10 T
b10 #
1*
1:
#122
b1 S
0*
0:
#123
b10 P
b0 T
b0 #
1*
1:
#124
b10 S
0*
0:
#125
b11 P
1*
1:
#126
b11 S
0*
0:
#127
b1011 P
1*
1:
#128
b1011 S
0*
0:
#129
b110 P
1*
1:
#130
b110 S
0*
0:
#131
b1 P
b10 T
b10 #
1*
1:
#132
b1 S
0*
0:
#133
b10 P
b0 T
b0 #
1*
1:
#134
b10 S
0*
0:
#135
b11 P
1*
1:
#136
b11 S
0*
0:
#137
b1011 P
1*
1:
#138
b1011 S
0*
0:
#139
b110 P
1*
1:
#140
b110 S
0*
0:
#141
b1 P
b10 T
b10 #
1*
1:
#142
b1 S
0*
0:
#143
b10 P
b0 T
b0 #
1*
1:
#144
b10 S
0*
0:
#145
b11 P
1*
1:
#146
b11 S
0*
0:
#147
b1011 P
1*
1:
#148
b1011 S
0*
0:
#149
b110 P
1*
1:
#150
b110 S
0*
0:
#151
b1 P
b10 T
b10 #
1*
1:
#152
b1 S
0*
0:
#153
b10 P
b0 T
b0 #
1*
1:
#154
b10 S
0*
0:
#155
b11 P
1*
1:
#156
b11 S
0*
0:
#157
b1011 P
1*
1:
#158
b1011 S
0*
0:
#159
b110 P
1*
1:
#160
b110 S
0*
0:
#161
b1 P
b10 T
b10 #
1*
1:
#162
b1 S
0*
0:
#163
b10 P
b0 T
b0 #
1*
1:
#164
b10 S
0*
0:
#165
b11 P
1*
1:
#166
b11 S
0*
0:
#167
b1011 P
1*
1:
#168
b1011 S
0*
0:
#169
b110 P
1*
1:
#170
b110 S
0*
0:
#171
b1 P
b10 T
b10 #
1*
1:
#172
b1 S
0*
0:
#173
b10 P
b0 T
b0 #
1*
1:
#174
b10 S
0*
0:
#175
b11 P
1*
1:
#176
b11 S
0*
0:
#177
b1011 P
1*
1:
#178
b1011 S
0*
0:
#179
b110 P
1*
1:
#180
b110 S
0*
0:
#181
b1 P
b10 T
b10 #
1*
1:
#182
b1 S
0*
0:
#183
b10 P
b0 T
b0 #
1*
1:
#184
b10 S
0*
0:
#185
b11 P
1*
1:
#186
b11 S
0*
0:
#187
b1011 P
1*
1:
#188
b1011 S
0*
0:
#189
b110 P
1*
1:
#190
b110 S
0*
0:
#191
b1 P
b10 T
b10 #
1*
1:
#192
b1 S
0*
0:
#193
b10 P
b0 T
b0 #
1*
1:
#194
b10 S
0*
0:
#195
b11 P
1*
1:
#196
b11 S
0*
0:
#197
b1011 P
1*
1:
#198
b1011 S
0*
0:
#199
b110 P
1*
1:
#200
b110 S
0*
0:
#201
b1 P
b10 T
b10 #
1*
1:
#202
b1 S
0*
0:
#203
b10 P
b0 T
b0 #
1*
1:
#204
b10 S
0*
0:
#205
b11 P
1*
1:
#206
b11 S
0*
0:
#207
b1011 P
1*
1:
#208
b1011 S
0*
0:
#209
b110 P
1*
1:
#210
b110 S
0*
0:
#211
b1 P
b10 T
b10 #
1*
1:
#212
b1 S
0*
0:
#213
b10 P
b0 T
b0 #
1*
1:
#214
b10 S
0*
0:
#215
b11 P
1*
1:
#216
b11 S
0*
0:
#217
b1011 P
1*
1:
#218
b1011 S
0*
0:
#219
b110 P
1*
1:
#220
b110 S
0*
0:
#221
b1 P
b10 T
b10 #
1*
1:
#222
b1 S
0*
0:
#223
b10 P
b0 T
b0 #
1*
1:
#224
b10 S
0*
0:
#225
b11 P
1*
1:
#226
b11 S
0*
0:
#227
b1011 P
1*
1:
#228
b1011 S
0*
0:
#229
b110 P
1*
1:
#230
b110 S
0*
0:
#231
b1 P
b10 T
b10 #
1*
1:
#232
b1 S
0*
0:
#233
b10 P
b0 T
b0 #
1*
1:
#234
b10 S
0*
0:
#235
b11 P
1*
1:
#236
b11 S
0*
0:
#237
b1011 P
1*
1:
#238
b1011 S
0*
0:
#239
b110 P
1*
1:
#240
b110 S
0*
0:
#241
b1 P
b10 T
b10 #
1*
1:
#242
b1 S
0*
0:
#243
b10 P
b0 T
b0 #
1*
1:
#244
b10 S
0*
0:
#245
b11 P
1*
1:
#246
b11 S
0*
0:
#247
b1011 P
1*
1:
#248
b1011 S
0*
0:
#249
b110 P
1*
1:
#250
b110 S
0*
0:
#251
b1 P
b10 T
b10 #
1*
1:
#252
b1 S
0*
0:
#253
b10 P
b0 T
b0 #
1*
1:
#254
b10 S
0*
0:
#255
b11 P
1*
1:
#256
b11 S
0*
0:
#257
b1011 P
1*
1:
#258
b1011 S
0*
0:
#259
b110 P
1*
1:
#260
b110 S
0*
0:
#261
b1 P
b10 T
b10 #
1*
1:
#262
b1 S
0*
0:
#263
b10 P
b0 T
b0 #
1*
1:
#264
b10 S
0*
0:
#265
b11 P
1*
1:
#266
b11 S
0*
0:
#267
b1011 P
1*
1:
#268
b1011 S
0*
0:
#269
b110 P
1*
1:
#270
b110 S
0*
0:
#271
b1 P
b10 T
b10 #
1*
1:
#272
b1 S
0*
0:
#273
b10 P
b0 T
b0 #
1*
1:
#274
b10 S
0*
0:
#275
b11 P
1*
1:
#276
b11 S
0*
0:
#277
b1011 P
1*
1:
#278
b1011 S
0*
0:
#279
b110 P
1*
1:
#280
b110 S
0*
0:
#281
b1 P
b10 T
b10 #
1*
1:
#282
b1 S
0*
0:
#283
b10 P
b0 T
b0 #
1*
1:
#284
b10 S
0*
0:
#285
b11 P
1*
1:
#286
b11 S
0*
0:
#287
b1011 P
1*
1:
#288
b1011 S
0*
0:
#289
b110 P
1*
1:
#290
b110 S
0*
0:
#291
b1 P
b10 T
b10 #
1*
1:
#292
b1 S
0*
0:
#293
b10 P
b0 T
b0 #
1*
1:
#294
b10 S
0*
0:
#295
b11 P
1*
1:
#296
b11 S
0*
0:
#297
b1011 P
1*
1:
#298
b1011 S
0*
0:
#299
b110 P
1*
1:
#300
b110 S
0*
0:
#301
b1 P
b10 T
b10 #
1*
1:
#302
b1 S
0*
0:
#303
b10 P
b0 T
b0 #
1*
1:
#304
b10 S
0*
0:
#305
b11 P
1*
1:
#306
b11 S
0*
0:
#307
b1011 P
1*
1:
#308
b1011 S
0*
0:
#309
b110 P
1*
1:
#310
b110 S
0*
0:
#311
b1 P
b10 T
b10 #
1*
1:
#312
b1 S
0*
0:
#313
b10 P
b0 T
b0 #
1*
1:
#314
b10 S
0*
0:
#315
b11 P
1*
1:
#316
b11 S
0*
0:
#317
b1011 P
1*
1:
#318
b1011 S
0*
0:
#319
b110 P
1*
1:
#320
b110 S
0*
0:
#321
b1 P
b10 T
b10 #
1*
1:
#322
b1 S
0*
0:
#323
b10 P
b0 T
b0 #
1*
1:
#324
b10 S
0*
0:
#325
b11 P
1*
1:
#326
b11 S
0*
0:
#327
b1011 P
1*
1:
#328
b1011 S
0*
0:
#329
b110 P
1*
1:
#330
b110 S
0*
0:
#331
b1 P
b10 T
b10 #
1*
1:
#332
b1 S
0*
0:
#333
b10 P
b0 T
b0 #
1*
1:
#334
b10 S
0*
0:
#335
b11 P
1*
1:
#336
b11 S
0*
0:
#337
b1011 P
1*
1:
#338
b1011 S
0*
0:
#339
b110 P
1*
1:
#340
b110 S
0*
0:
#341
b1 P
b10 T
b10 #
1*
1:
#342
b1 S
0*
0:
#343
b10 P
b0 T
b0 #
1*
1:
#344
b10 S
0*
0:
#345
b11 P
1*
1:
#346
b11 S
0*
0:
#347
b1011 P
1*
1:
#348
b1011 S
0*
0:
#349
b110 P
1*
1:
#350
b110 S
0*
0:
#351
b1 P
b10 T
b10 #
1*
1:
#352
b1 S
0*
0:
#353
b10 P
b0 T
b0 #
1*
1:
#354
b10 S
0*
0:
#355
b11 P
1*
1:
#356
b11 S
0*
0:
#357
b1011 P
1*
1:
#358
b1011 S
0*
0:
#359
b110 P
1*
1:
#360
b110 S
0*
0:
#361
b1 P
b10 T
b10 #
1*
1:
#362
b1 S
0*
0:
#363
b10 P
b0 T
b0 #
1*
1:
#364
b10 S
0*
0:
#365
b11 P
1*
1:
#366
b11 S
0*
0:
#367
b1011 P
1*
1:
#368
b1011 S
0*
0:
#369
b110 P
1*
1:
#370
b110 S
0*
0:
#371
b1 P
b10 T
b10 #
1*
1:
#372
b1 S
0*
0:
#373
b10 P
b0 T
b0 #
1*
1:
#374
b10 S
0*
0:
#375
b11 P
1*
1:
#376
b11 S
0*
0:
#377
b1011 P
1*
1:
#378
b1011 S
0*
0:
#379
b110 P
1*
1:
#380
b110 S
0*
0:
#381
b1 P
b10 T
b10 #
1*
1:
#382
b1 S
0*
0:
#383
b10 P
b0 T
b0 #
1*
1:
#384
b10 S
0*
0:
#385
b11 P
1*
1:
#386
b11 S
0*
0:
#387
b1011 P
1*
1:
#388
b1011 S
0*
0:
#389
b110 P
1*
1:
#390
b110 S
0*
0:
#391
b1 P
b10 T
b10 #
1*
1:
#392
b1 S
0*
0:
#393
b10 P
b0 T
b0 #
1*
1:
#394
b10 S
0*
0:
#395
b11 P
1*
1:
#396
b11 S
0*
0:
#397
b1011 P
1*
1:
#398
b1011 S
0*
0:
#399
b110 P
1*
1:
#400
b110 S
0*
0:
#401
b1 P
b10 T
b10 #
1*
1:
#402
b1 S
0*
0:
#403
b10 P
b0 T
b0 #
1*
1:
#404
b10 S
0*
0:
#405
b11 P
1*
1:
#406
b11 S
0*
0:
#407
b1011 P
1*
1:
#408
b1011 S
0*
0:
#409
b110 P
1*
1:
#410
b110 S
0*
0:
#411
b1 P
b10 T
b10 #
1*
1:
#412
b1 S
0*
0:
#413
b10 P
b0 T
b0 #
1*
1:
#414
b10 S
0*
0:
#415
b11 P
1*
1:
#416
b11 S
0*
0:
#417
b1011 P
1*
1:
#418
b1011 S
0*
0:
#419
b110 P
1*
1:
#420
b110 S
0*
0:
#421
b1 P
b10 T
b10 #
1*
1:
#422
b1 S
0*
0:
#423
b10 P
b0 T
b0 #
1*
1:
#424
b10 S
0*
0:
#425
b11 P
1*
1:
#426
b11 S
0*
0:
#427
b1011 P
1*
1:
#428
b1011 S
0*
0:
#429
b110 P
1*
1:
#430
b110 S
0*
0:
#431
b1 P
b10 T
b10 #
1*
1:
#432
b1 S
0*
0:
#433
b10 P
b0 T
b0 #
1*
1:
#434
b10 S
0*
0:
#435
b11 P
1*
1:
#436
b11 S
0*
0:
#437
b1011 P
1*
1:
#438
b1011 S
0*
0:
#439
b110 P
1*
1:
#440
b110 S
0*
0:
#441
b1 P
b10 T
b10 #
1*
1:
#442
b1 S
0*
0:
#443
b10 P
b0 T
b0 #
1*
1:
#444
b10 S
0*
0:
#445
b11 P
1*
1:
#446
b11 S
0*
0:
#447
b1011 P
1*
1:
#448
b1011 S
0*
0:
#449
b110 P
1*
1:
#450
b110 S
0*
0:
#451
b1 P
b10 T
b10 #
1*
1:
#452
b1 S
0*
0:
#453
b10 P
b0 T
b0 #
1*
1:
#454
b10 S
0*
0:
#455
b11 P
1*
1:
#456
b11 S
0*
0:
#457
b1011 P
1*
1:
#458
b1011 S
0*
0:
#459
b110 P
1*
1:
#460
b110 S
0*
0:
#461
b1 P
b10 T
b10 #
1*
1:
#462
b1 S
0*
0:
#463
b10 P
b0 T
b0 #
1*
1:
#464
b10 S
0*
0:
#465
b11 P
1*
1:
#466
b11 S
0*
0:
#467
b1011 P
1*
1:
#468
b1011 S
0*
0:
#469
b110 P
1*
1:
#470
b110 S
0*
0:
#471
b1 P
b10 T
b10 #
1*
1:
#472
b1 S
0*
0:
#473
b10 P
b0 T
b0 #
1*
1:
#474
b10 S
0*
0:
#475
b11 P
1*
1:
#476
b11 S
0*
0:
#477
b1011 P
1*
1:
#478
b1011 S
0*
0:
#479
b110 P
1*
1:
#480
b110 S
0*
0:
#481
b1 P
b10 T
b10 #
1*
1:
#482
b1 S
0*
0:
#483
b10 P
b0 T
b0 #
1*
1:
#484
b10 S
0*
0:
#485
b11 P
1*
1:
#486
b11 S
0*
0:
#487
b1011 P
1*
1:
#488
b1011 S
0*
0:
#489
b110 P
1*
1:
#490
b110 S
0*
0:
#491
b1 P
b10 T
b10 #
1*
1:
#492
b1 S
0*
0:
#493
b10 P
b0 T
b0 #
1*
1:
#494
b10 S
0*
0:
#495
b11 P
1*
1:
#496
b11 S
0*
0:
#497
b1011 P
1*
1:
#498
b1011 S
0*
0:
#499
b110 P
1*
1:
#500
b110 S
0*
0:
#501
b1 P
b10 T
b10 #
1*
1:
#502
b1 S
0*
0:
#503
b10 P
b0 T
b0 #
1*
1:
#504
b10 S
0*
0:
#505
b11 P
1*
1:
#506
b11 S
0*
0:
#507
b1011 P
1*
1:
#508
b1011 S
0*
0:
#509
b110 P
1*
1:
#510
b110 S
0*
0:
#511
b1 P
b10 T
b10 #
1*
1:
#512
b1 S
0*
0:
#513
b10 P
b0 T
b0 #
1*
1:
#514
b10 S
0*
0:
#515
b11 P
1*
1:
#516
b11 S
0*
0:
#517
b1011 P
1*
1:
#518
b1011 S
0*
0:
#519
b110 P
1*
1:
#520
b110 S
0*
0:
#521
b1 P
b10 T
b10 #
1*
1:
#522
b1 S
0*
0:
#523
b10 P
b0 T
b0 #
1*
1:
#524
b10 S
0*
0:
#525
b11 P
1*
1:
