bin/enpoint/ControlTBreset/tester.vcd
$date
	Sun Oct  7 22:41:38 2018
$end
$version
	Icarus Verilog
$end
$timescale
	1s
$end
$scope module tester $end
$var wire 16 ! wdata_out3 [15:0] $end
$var wire 64 " wdata_out2 [63:0] $end
$var wire 32 # wdata_out [31:0] $end
$var wire 1 $ wbusy $end
$var reg 8 % rbRequest [7:0] $end
$var reg 8 & rbmRequestType [7:0] $end
$var reg 1 ' rclk $end
$var reg 64 ( rdata [63:0] $end
$var reg 1 ) renable $end
$var reg 32 * rparameter_Block [31:0] $end
$var reg 64 + rparameter_Block2 [63:0] $end
$var reg 1 , rrst $end
$var reg 16 - rwIndex [15:0] $end
$var reg 16 . rwLength [15:0] $end
$var reg 16 / rwValue [15:0] $end
$scope module control_intance $end
$var wire 1 ' clk $end
$var wire 64 0 data [63:0] $end
$var wire 1 ) enable $end
$var wire 16 1 parameter_Block16 [15:0] $end
$var wire 32 2 parameter_Block32 [31:0] $end
$var wire 64 3 parameter_Block64 [63:0] $end
$var wire 1 , rst $end
$var wire 32 4 wget_optmode [31:0] $end
$var reg 64 5 address [63:0] $end
$var reg 32 6 addresstemp1 [31:0] $end
$var reg 32 7 addresstemp2 [31:0] $end
$var reg 8 8 bRequest [7:0] $end
$var reg 8 9 bmRequestType [7:0] $end
$var reg 64 : buffer_command [63:0] $end
$var reg 1 $ busy $end
$var reg 32 ; config_data [31:0] $end
$var reg 16 < config_trace [15:0] $end
$var reg 16 = count [15:0] $end
$var reg 16 > data_out16 [15:0] $end
$var reg 32 ? data_out32 [31:0] $end
$var reg 64 @ data_out64 [63:0] $end
$var reg 32 A dato [31:0] $end
$var reg 32 B datotemp1 [31:0] $end
$var reg 32 C datotemp2 [31:0] $end
$var reg 8 D debug_Unit_ID [7:0] $end
$var reg 16 E error_reg [15:0] $end
$var reg 1 F global $end
$var reg 8 G interface_ID [7:0] $end
$var reg 1 H local $end
$var reg 5 I next_state [4:0] $end
$var reg 1 J reset_endpoint $end
$var reg 1 K singl_data $end
$var reg 1 L specific $end
$var reg 5 M state [4:0] $end
$var reg 64 N tempoadress [63:0] $end
$var reg 16 O wIndex [15:0] $end
$var reg 16 P wLength [15:0] $end
$var reg 16 Q wValue [15:0] $end
$var reg 32 R wset_optmode [31:0] $end
$upscope $end
$upscope $end
$enddefinitions $end
#0
$dumpvars
bx R
bx Q
bx P
bx O
bx N
bx M
xL
xK
xJ
bx I
xH
bx G
xF
bx E
bx D
bx C
bx B
bx A
bx @
bx ?
bx >
bx =
bx <
bx ;
bx :
bx 9
bx 8
bx 7
bx 6
bx 5
bz 4
bx 3
bx 2
bz 1
bx0xxxxxxxxxxxxxxxxxxxxxx0xxxxxxxxxxxxxxxxxxxxxxxxxxxxxxxx 0
bx /
bx .
bx -
1,
bx +
bx *
x)
bx0xxxxxxxxxxxxxxxxxxxxxx0xxxxxxxxxxxxxxxxxxxxxxxxxxxxxxxx (
0'
bx &
bx %
x$
bx #
bx "
bx !
$end
#1
b10000110011111 ;
1'
#2
b0 E
b1 M
0'
#3
0J
b10 I
0$
0K
b0xxxxxxxxxxxxxx Q
1'
#4
0'
#5
b10 P
b0 O
b0 Q
b1010 8
b100001 9
1'
1)
b10 .
b0 -
b0 /
b1010 %
b100001 &
b10000100000101000000000000000000000000000000000000000000000010 (
b10000100000101000000000000000000000000000000000000000000000010 0
0,
#6
b10 M
0'
#7
b1011 I
1'
#8
b1011 M
0'
#9
1J
1F
1$
b1 I
b0 G
b0 D
1'
#10
b1 E
b1 M
0'
#11
0J
b10 I
0$
1'
#12
b0 E
b10 M
0'
#13
b1011 I
1'
#14
b1011 M
0'
#15
1J
1$
b1 I
1'
#16
b1 E
b1 M
0'
#17
0J
b10 I
0$
1'
#18
b0 E
b10 M
0'
#19
b1011 I
1'
#20
b1011 M
0'
#21
1J
1$
b1 I
1'
#22
b1 E
b1 M
0'
#23
0J
b10 I
0$
1'
#24
b0 E
b10 M
0'
#25
b1011 I
1'
#26
b1011 M
0'
#27
1J
1$
b1 I
1'
#28
b1 E
b1 M
0'
#29
0J
b10 I
0$
1'
#30
b0 E
b10 M
0'
#31
b1011 I
1'
#32
b1011 M
0'
#33
1J
1$
b1 I
1'
#34
b1 E
b1 M
0'
#35
0J
b10 I
0$
1'
#36
b0 E
b10 M
0'
#37
b1011 I
1'
#38
b1011 M
0'
#39
1J
1$
b1 I
1'
#40
b1 E
b1 M
0'
#41
0J
b10 I
0$
1'
#42
b0 E
b10 M
0'
#43
b1011 I
1'
#44
b1011 M
0'
#45
1J
1$
b1 I
1'
#46
b1 E
b1 M
0'
#47
0J
b10 I
0$
1'
#48
b0 E
b10 M
0'
#49
b1011 I
1'
#50
b1011 M
0'
#51
1J
1$
b1 I
1'
#52
b1 E
b1 M
0'
#53
0J
b10 I
0$
1'
#54
b0 E
b10 M
0'
#55
b1011 I
1'
#56
b1011 M
0'
#57
1J
1$
b1 I
1'
#58
b1 E
b1 M
0'
#59
0J
b10 I
0$
1'
#60
b0 E
b10 M
0'
#61
b1011 I
1'
#62
b1011 M
0'
#63
1J
1$
b1 I
1'
#64
b1 E
b1 M
0'
#65
0J
b10 I
0$
1'
#66
b0 E
b10 M
0'
#67
b1011 I
1'
#68
b1011 M
0'
#69
1J
1$
b1 I
1'
#70
b1 E
b1 M
0'
#71
0J
b10 I
0$
1'
#72
b0 E
b10 M
0'
#73
b1011 I
1'
#74
b1011 M
0'
#75
1J
1$
b1 I
1'
#76
b1 E
b1 M
0'
#77
0J
b10 I
0$
1'
#78
b0 E
b10 M
0'
#79
b1011 I
1'
#80
b1011 M
0'
#81
1J
1$
b1 I
1'
#82
b1 E
b1 M
0'
#83
0J
b10 I
0$
1'
#84
b0 E
b10 M
0'
#85
b1011 I
1'
#86
b1011 M
0'
#87
1J
1$
b1 I
1'
#88
b1 E
b1 M
0'
#89
0J
b10 I
0$
1'
#90
b0 E
b10 M
0'
#91
b1011 I
1'
#92
b1011 M
0'
#93
1J
1$
b1 I
1'
#94
b1 E
b1 M
0'
#95
0J
b10 I
0$
1'
#96
b0 E
b10 M
0'
#97
b1011 I
1'
#98
b1011 M
0'
#99
1J
1$
b1 I
1'
#100
b1 E
b1 M
0'
#101
0J
b10 I
0$
1'
#102
b0 E
b10 M
0'
#103
b1011 I
1'
#104
b1011 M
0'
#105
1J
1$
b1 I
1'
#106
b1 E
b1 M
0'
#107
0J
b10 I
0$
1'
#108
b0 E
b10 M
0'
#109
b1011 I
1'
#110
b1011 M
0'
#111
1J
1$
b1 I
1'
#112
b1 E
b1 M
0'
#113
0J
b10 I
0$
1'
#114
b0 E
b10 M
0'
#115
b1011 I
1'
#116
b1011 M
0'
#117
1J
1$
b1 I
1'
#118
b1 E
b1 M
0'
#119
0J
b10 I
0$
1'
#120
b0 E
b10 M
0'
#121
b1011 I
1'
#122
b1011 M
0'
#123
1J
1$
b1 I
1'
#124
b1 E
b1 M
0'
#125
0J
b10 I
0$
1'
#126
b0 E
b10 M
0'
#127
b1011 I
1'
#128
b1011 M
0'
#129
1J
1$
b1 I
1'
#130
b1 E
b1 M
0'
#131
0J
b10 I
0$
1'
#132
b0 E
b10 M
0'
#133
b1011 I
1'
#134
b1011 M
0'
#135
1J
1$
b1 I
1'
#136
b1 E
b1 M
0'
#137
0J
b10 I
0$
1'
#138
b0 E
b10 M
0'
#139
b1011 I
1'
#140
b1011 M
0'
#141
1J
1$
b1 I
1'
#142
b1 E
b1 M
0'
#143
0J
b10 I
0$
1'
#144
b0 E
b10 M
0'
#145
b1011 I
1'
#146
b1011 M
0'
#147
1J
1$
b1 I
1'
#148
b1 E
b1 M
0'
#149
0J
b10 I
0$
1'
#150
b0 E
b10 M
0'
#151
b1011 I
1'
#152
b1011 M
0'
#153
1J
1$
b1 I
1'
#154
b1 E
b1 M
0'
#155
0J
b10 I
0$
1'
#156
b0 E
b10 M
0'
#157
b1011 I
1'
#158
b1011 M
0'
#159
1J
1$
b1 I
1'
#160
b1 E
b1 M
0'
#161
0J
b10 I
0$
1'
#162
b0 E
b10 M
0'
#163
b1011 I
1'
#164
b1011 M
0'
#165
1J
1$
b1 I
1'
#166
b1 E
b1 M
0'
#167
0J
b10 I
0$
1'
#168
b0 E
b10 M
0'
#169
b1011 I
1'
#170
b1011 M
0'
#171
1J
1$
b1 I
1'
#172
b1 E
b1 M
0'
#173
0J
b10 I
0$
1'
#174
b0 E
b10 M
0'
#175
b1011 I
1'
#176
b1011 M
0'
#177
1J
1$
b1 I
1'
#178
b1 E
b1 M
0'
#179
0J
b10 I
0$
1'
#180
b0 E
b10 M
0'
#181
b1011 I
1'
#182
b1011 M
0'
#183
1J
1$
b1 I
1'
#184
b1 E
b1 M
0'
#185
0J
b10 I
0$
1'
#186
b0 E
b10 M
0'
#187
b1011 I
1'
#188
b1011 M
0'
#189
1J
1$
b1 I
1'
#190
b1 E
b1 M
0'
#191
0J
b10 I
0$
1'
#192
b0 E
b10 M
0'
#193
b1011 I
1'
#194
b1011 M
0'
#195
1J
1$
b1 I
1'
#196
b1 E
b1 M
0'
#197
0J
b10 I
0$
1'
#198
b0 E
b10 M
0'
#199
b1011 I
1'
#200
b1011 M
0'
#201
1J
1$
b1 I
1'
#202
b1 E
b1 M
0'
#203
0J
b10 I
0$
1'
#204
b0 E
b10 M
0'
#205
b1011 I
1'
#206
b1011 M
0'
#207
1J
1$
b1 I
1'
#208
b1 E
b1 M
0'
#209
0J
b10 I
0$
1'
#210
b0 E
b10 M
0'
#211
b1011 I
1'
#212
b1011 M
0'
#213
1J
1$
b1 I
1'
#214
b1 E
b1 M
0'
#215
0J
b10 I
0$
1'
#216
b0 E
b10 M
0'
#217
b1011 I
1'
#218
b1011 M
0'
#219
1J
1$
b1 I
1'
#220
b1 E
b1 M
0'
#221
0J
b10 I
0$
1'
#222
b0 E
b10 M
0'
#223
b1011 I
1'
#224
b1011 M
0'
#225
1J
1$
b1 I
1'
#226
b1 E
b1 M
0'
#227
0J
b10 I
0$
1'
#228
b0 E
b10 M
0'
#229
b1011 I
1'
#230
b1011 M
0'
#231
1J
1$
b1 I
1'
#232
b1 E
b1 M
0'
#233
0J
b10 I
0$
1'
#234
b0 E
b10 M
0'
#235
b1011 I
1'
#236
b1011 M
0'
#237
1J
1$
b1 I
1'
#238
b1 E
b1 M
0'
#239
0J
b10 I
0$
1'
#240
b0 E
b10 M
0'
#241
b1011 I
1'
#242
b1011 M
0'
#243
1J
1$
b1 I
1'
#244
b1 E
b1 M
0'
#245
0J
b10 I
0$
1'
#246
b0 E
b10 M
0'
#247
b1011 I
1'
#248
b1011 M
0'
#249
1J
1$
b1 I
1'
#250
b1 E
b1 M
0'
#251
0J
b10 I
0$
1'
#252
b0 E
b10 M
0'
#253
b1011 I
1'
#254
b1011 M
0'
#255
1J
1$
b1 I
1'
#256
b1 E
b1 M
0'
#257
0J
b10 I
0$
1'
#258
b0 E
b10 M
0'
#259
b1011 I
1'
#260
b1011 M
0'
#261
1J
1$
b1 I
1'
#262
b1 E
b1 M
0'
#263
0J
b10 I
0$
1'
#264
b0 E
b10 M
0'
#265
b1011 I
1'
#266
b1011 M
0'
#267
1J
1$
b1 I
1'
#268
b1 E
b1 M
0'
#269
0J
b10 I
0$
1'
#270
b0 E
b10 M
0'
#271
b1011 I
1'
#272
b1011 M
0'
#273
1J
1$
b1 I
1'
#274
b1 E
b1 M
0'
#275
0J
b10 I
0$
1'
#276
b0 E
b10 M
0'
#277
b1011 I
1'
#278
b1011 M
0'
#279
1J
1$
b1 I
1'
#280
b1 E
b1 M
0'
#281
0J
b10 I
0$
1'
#282
b0 E
b10 M
0'
#283
b1011 I
1'
#284
b1011 M
0'
#285
1J
1$
b1 I
1'
#286
b1 E
b1 M
0'
#287
0J
b10 I
0$
1'
#288
b0 E
b10 M
0'
#289
b1011 I
1'
#290
b1011 M
0'
#291
1J
1$
b1 I
1'
#292
b1 E
b1 M
0'
#293
0J
b10 I
0$
1'
#294
b0 E
b10 M
0'
#295
b1011 I
1'
#296
b1011 M
0'
#297
1J
1$
b1 I
1'
#298
b1 E
b1 M
0'
#299
0J
b10 I
0$
1'
#300
b0 E
b10 M
0'
#301
b1011 I
1'
#302
b1011 M
0'
#303
1J
1$
b1 I
1'
#304
b1 E
b1 M
0'
#305
0J
b10 I
0$
1'
#306
b0 E
b10 M
0'
#307
b1011 I
1'
#308
b1011 M
0'
#309
1J
1$
b1 I
1'
#310
b1 E
b1 M
0'
#311
0J
b10 I
0$
1'
#312
b0 E
b10 M
0'
#313
b1011 I
1'
#314
b1011 M
0'
#315
1J
1$
b1 I
1'
#316
b1 E
b1 M
0'
#317
0J
b10 I
0$
1'
#318
b0 E
b10 M
0'
#319
b1011 I
1'
#320
b1011 M
0'
#321
1J
1$
b1 I
1'
#322
b1 E
b1 M
0'
#323
0J
b10 I
0$
1'
#324
b0 E
b10 M
0'
#325
b1011 I
1'
#326
b1011 M
0'
#327
1J
1$
b1 I
1'
#328
b1 E
b1 M
0'
#329
0J
b10 I
0$
1'
#330
b0 E
b10 M
0'
#331
b1011 I
1'
#332
b1011 M
0'
#333
1J
1$
b1 I
1'
#334
b1 E
b1 M
0'
#335
0J
b10 I
0$
1'
#336
b0 E
b10 M
0'
#337
b1011 I
1'
#338
b1011 M
0'
#339
1J
1$
b1 I
1'
#340
b1 E
b1 M
0'
#341
0J
b10 I
0$
1'
#342
b0 E
b10 M
0'
#343
b1011 I
1'
#344
b1011 M
0'
#345
1J
1$
b1 I
1'
#346
b1 E
b1 M
0'
#347
0J
b10 I
0$
1'
#348
b0 E
b10 M
0'
#349
b1011 I
1'
#350
b1011 M
0'
#351
1J
1$
b1 I
1'
#352
b1 E
b1 M
0'
#353
0J
b10 I
0$
1'
#354
b0 E
b10 M
0'
#355
b1011 I
1'
#356
b1011 M
0'
#357
1J
1$
b1 I
1'
#358
b1 E
b1 M
0'
#359
0J
b10 I
0$
1'
#360
b0 E
b10 M
0'
#361
b1011 I
1'
#362
b1011 M
0'
#363
1J
1$
b1 I
1'
#364
b1 E
b1 M
0'
#365
0J
b10 I
0$
1'
#366
b0 E
b10 M
0'
#367
b1011 I
1'
#368
b1011 M
0'
#369
1J
1$
b1 I
1'
#370
b1 E
b1 M
0'
#371
0J
b10 I
0$
1'
#372
b0 E
b10 M
0'
#373
b1011 I
1'
#374
b1011 M
0'
#375
1J
1$
b1 I
1'
#376
b1 E
b1 M
0'
#377
0J
b10 I
0$
1'
#378
b0 E
b10 M
0'
#379
b1011 I
1'
#380
b1011 M
0'
#381
1J
1$
b1 I
1'
#382
b1 E
b1 M
0'
#383
0J
b10 I
0$
1'
#384
b0 E
b10 M
0'
#385
b1011 I
1'
#386
b1011 M
0'
#387
1J
1$
b1 I
1'
#388
b1 E
b1 M
0'
#389
0J
b10 I
0$
1'
#390
b0 E
b10 M
0'
#391
b1011 I
1'
#392
b1011 M
0'
#393
1J
1$
b1 I
1'
#394
b1 E
b1 M
0'
#395
0J
b10 I
0$
1'
#396
b0 E
b10 M
0'
#397
b1011 I
1'
#398
b1011 M
0'
#399
1J
1$
b1 I
1'
#400
b1 E
b1 M
0'
#401
0J
b10 I
0$
1'
#402
b0 E
b10 M
0'
#403
b1011 I
1'
#404
b1011 M
0'
#405
1J
1$
b1 I
1'
#406
b1 E
b1 M
0'
#407
0J
b10 I
0$
1'
#408
b0 E
b10 M
0'
#409
b1011 I
1'
#410
b1011 M
0'
#411
1J
1$
b1 I
1'
#412
b1 E
b1 M
0'
#413
0J
b10 I
0$
1'
#414
b0 E
b10 M
0'
#415
b1011 I
1'
#416
b1011 M
0'
#417
1J
1$
b1 I
1'
#418
b1 E
b1 M
0'
#419
0J
b10 I
0$
1'
#420
b0 E
b10 M
0'
#421
b1011 I
1'
#422
b1011 M
0'
#423
1J
1$
b1 I
1'
#424
b1 E
b1 M
0'
#425
0J
b10 I
0$
1'
#426
b0 E
b10 M
0'
#427
b1011 I
1'
#428
b1011 M
0'
#429
1J
1$
b1 I
1'
#430
b1 E
b1 M
0'
#431
0J
b10 I
0$
1'
#432
b0 E
b10 M
0'
#433
b1011 I
1'
#434
b1011 M
0'
#435
1J
1$
b1 I
1'
#436
b1 E
b1 M
0'
#437
0J
b10 I
0$
1'
#438
b0 E
b10 M
0'
#439
b1011 I
1'
#440
b1011 M
0'
#441
1J
1$
b1 I
1'
#442
b1 E
b1 M
0'
#443
0J
b10 I
0$
1'
#444
b0 E
b10 M
0'
#445
b1011 I
1'
#446
b1011 M
0'
#447
1J
1$
b1 I
1'
#448
b1 E
b1 M
0'
#449
0J
b10 I
0$
1'
#450
b0 E
b10 M
0'
#451
b1011 I
1'
#452
b1011 M
0'
#453
1J
1$
b1 I
1'
#454
b1 E
b1 M
0'
#455
0J
b10 I
0$
1'
#456
b0 E
b10 M
0'
#457
b1011 I
1'
#458
b1011 M
0'
#459
1J
1$
b1 I
1'
#460
b1 E
b1 M
0'
#461
0J
b10 I
0$
1'
#462
b0 E
b10 M
0'
#463
b1011 I
1'
#464
b1011 M
0'
#465
1J
1$
b1 I
1'
#466
b1 E
b1 M
0'
#467
0J
b10 I
0$
1'
#468
b0 E
b10 M
0'
#469
b1011 I
1'
#470
b1011 M
0'
#471
1J
1$
b1 I
1'
#472
b1 E
b1 M
0'
#473
0J
b10 I
0$
1'
#474
b0 E
b10 M
0'
#475
b1011 I
1'
#476
b1011 M
0'
#477
1J
1$
b1 I
1'
#478
b1 E
b1 M
0'
#479
0J
b10 I
0$
1'
#480
b0 E
b10 M
0'
#481
b1011 I
1'
#482
b1011 M
0'
#483
1J
1$
b1 I
1'
#484
b1 E
b1 M
0'
#485
0J
b10 I
0$
1'
#486
b0 E
b10 M
0'
#487
b1011 I
1'
#488
b1011 M
0'
#489
1J
1$
b1 I
1'
#490
b1 E
b1 M
0'
#491
0J
b10 I
0$
1'
#492
b0 E
b10 M
0'
#493
b1011 I
1'
#494
b1011 M
0'
#495
1J
1$
b1 I
1'
#496
b1 E
b1 M
0'
#497
0J
b10 I
0$
1'
#498
b0 E
b10 M
0'
#499
b1011 I
1'
#500
b1011 M
0'
#501
1J
1$
b1 I
1'
#502
b1 E
b1 M
0'
#503
0J
b10 I
0$
1'
#504
b0 E
b10 M
0'
#505
b1011 I
1'
#506
b1011 M
0'
#507
1J
1$
b1 I
1'
#508
b1 E
b1 M
0'
#509
0J
b10 I
0$
1'
#510
b0 E
b10 M
0'
#511
b1011 I
1'
#512
b1011 M
0'
#513
1J
1$
b1 I
1'
#514
b1 E
b1 M
0'
#515
0J
b10 I
0$
1'
#516
b0 E
b10 M
0'
#517
b1011 I
1'
#518
b1011 M
0'
