bin/enpoint/ControlTBopMode/tester.vcd
$date
	Sun Oct  7 23:22:35 2018
$end
$version
	Icarus Verilog
$end
$timescale
	1s
$end
$scope module tester $end
$var wire 16 ! wdata_out3 [15:0] $end
$var wire 64 " wdata_out2 [63:0] $end
$var wire 32 # wdata_out [31:0] $end
$var wire 1 $ wbusy $end
$var reg 8 % rbRequest [7:0] $end
$var reg 8 & rbmRequestType [7:0] $end
$var reg 1 ' rclk $end
$var reg 64 ( rdata [63:0] $end
$var reg 1 ) renable $end
$var reg 32 * rget_optmode [31:0] $end
$var reg 32 + rparameter_Block [31:0] $end
$var reg 64 , rparameter_Block2 [63:0] $end
$var reg 1 - rrst $end
$var reg 16 . rwIndex [15:0] $end
$var reg 16 / rwLength [15:0] $end
$var reg 16 0 rwValue [15:0] $end
$scope module control_intance $end
$var wire 1 ' clk $end
$var wire 64 1 data [63:0] $end
$var wire 1 ) enable $end
$var wire 16 2 parameter_Block16 [15:0] $end
$var wire 32 3 parameter_Block32 [31:0] $end
$var wire 64 4 parameter_Block64 [63:0] $end
$var wire 1 - rst $end
$var wire 32 5 wget_optmode [31:0] $end
$var reg 64 6 address [63:0] $end
$var reg 32 7 addresstemp1 [31:0] $end
$var reg 32 8 addresstemp2 [31:0] $end
$var reg 8 9 bRequest [7:0] $end
$var reg 8 : bmRequestType [7:0] $end
$var reg 64 ; buffer_command [63:0] $end
$var reg 1 $ busy $end
$var reg 32 < config_data [31:0] $end
$var reg 16 = config_trace [15:0] $end
$var reg 16 > count [15:0] $end
$var reg 16 ? data_out16 [15:0] $end
$var reg 32 @ data_out32 [31:0] $end
$var reg 64 A data_out64 [63:0] $end
$var reg 32 B dato [31:0] $end
$var reg 32 C datotemp1 [31:0] $end
$var reg 32 D datotemp2 [31:0] $end
$var reg 8 E debug_Unit_ID [7:0] $end
$var reg 16 F error_reg [15:0] $end
$var reg 1 G global $end
$var reg 8 H interface_ID [7:0] $end
$var reg 1 I local $end
$var reg 5 J next_state [4:0] $end
$var reg 1 K reset_endpoint $end
$var reg 1 L singl_data $end
$var reg 1 M specific $end
$var reg 5 N state [4:0] $end
$var reg 64 O tempoadress [63:0] $end
$var reg 16 P wIndex [15:0] $end
$var reg 16 Q wLength [15:0] $end
$var reg 16 R wValue [15:0] $end
$var reg 32 S wset_optmode [31:0] $end
$upscope $end
$upscope $end
$enddefinitions $end
#0
$dumpvars
bx S
bx R
bx Q
bx P
bx O
bx N
xM
xL
xK
bx J
xI
bx H
xG
bx F
bx E
bx D
bx C
bx B
bx A
bx @
bx ?
bx >
bx =
bx <
bx ;
bx :
bx 9
bx 8
bx 7
bx 6
bx 5
bx 4
bx 3
bz 2
bx0xxxxxxxxxxxxxxxxxxxxxx0xxxxxxxxxxxxxxxxxxxxxxxxxxxxxxxx 1
bx 0
bx /
bx .
1-
bx ,
bx +
bx *
x)
bx0xxxxxxxxxxxxxxxxxxxxxx0xxxxxxxxxxxxxxxxxxxxxxxxxxxxxxxx (
0'
bx &
bx %
x$
bx #
bx "
bx !
$end
#1
b10000110011111 <
1'
#2
b0 F
b1 N
0'
#3
0K
b10 J
0$
0L
b0xxxxxxxxxxxxxx R
1'
#4
0'
#5
b10 Q
b0 P
b0 R
b101 9
b100001 :
1'
1)
b10 /
b0 .
b0 0
b101 %
b100001 &
b11 +
b11 3
b10000100000010100000000000000000000000000000000000000000000010 (
b10000100000010100000000000000000000000000000000000000000000010 1
0-
#6
b10 N
0'
#7
b1000 J
1'
#8
b1000 N
0'
#9
b1 J
b11 S
1G
1$
b0 H
b0 E
1'
#10
b1010000101000010100000000000000000000000000000000000000000000010 (
b1010000101000010100000000000000000000000000000000000000000000010 1
b1 F
b1 N
0'
b11 *
b11 5
b10000101 %
b10100001 &
#11
b10 J
0$
b10000101 9
b10100001 :
1'
#12
b0 F
b10 N
0'
#13
b10000 J
1'
#14
b10000 N
0'
#15
b11 #
b11 @
b1 J
1$
1'
#16
b1 F
b1 N
0'
#17
b10 J
0$
b1 P
b1010000101000010100000000000000000000000000000010000000000000010 (
b1010000101000010100000000000000000000000000000010000000000000010 1
1'
b111 *
b111 5
b1 .
#18
b0 F
b10 N
0'
#19
b10000 J
1'
#20
b10000 N
0'
#21
b111 #
b111 @
b1 J
1$
b1 H
1'
#22
b1 F
b1 N
0'
#23
b10 J
0$
1'
#24
b0 F
b10 N
0'
#25
b10000 J
1'
#26
b10000 N
0'
#27
b1 J
1$
1'
#28
b1 F
b1 N
0'
#29
b10 J
0$
1'
#30
b0 F
b10 N
0'
#31
b10000 J
1'
#32
b10000 N
0'
#33
b1 J
1$
1'
#34
b1 F
b1 N
0'
#35
b10 J
0$
1'
#36
b0 F
b10 N
0'
#37
b10000 J
1'
#38
b10000 N
0'
#39
b1 J
1$
1'
#40
b1 F
b1 N
0'
#41
b10 J
0$
1'
#42
b0 F
b10 N
0'
#43
b10000 J
1'
#44
b10000 N
0'
#45
b1 J
1$
1'
#46
b1 F
b1 N
0'
#47
b10 J
0$
1'
#48
b0 F
b10 N
0'
#49
b10000 J
1'
#50
b10000 N
0'
#51
b1 J
1$
1'
#52
b1 F
b1 N
0'
#53
b10 J
0$
1'
#54
b0 F
b10 N
0'
#55
b10000 J
1'
#56
b10000 N
0'
#57
b1 J
1$
1'
#58
b1 F
b1 N
0'
#59
b10 J
0$
1'
#60
b0 F
b10 N
0'
#61
b10000 J
1'
#62
b10000 N
0'
#63
b1 J
1$
1'
#64
b1 F
b1 N
0'
#65
b10 J
0$
1'
#66
b0 F
b10 N
0'
#67
b10000 J
1'
#68
b10000 N
0'
#69
b1 J
1$
1'
#70
b1 F
b1 N
0'
#71
b10 J
0$
1'
#72
b0 F
b10 N
0'
#73
b10000 J
1'
#74
b10000 N
0'
#75
b1 J
1$
1'
#76
b1 F
b1 N
0'
#77
b10 J
0$
1'
#78
b0 F
b10 N
0'
#79
b10000 J
1'
#80
b10000 N
0'
#81
b1 J
1$
1'
#82
b1 F
b1 N
0'
#83
b10 J
0$
1'
#84
b0 F
b10 N
0'
#85
b10000 J
1'
#86
b10000 N
0'
#87
b1 J
1$
1'
#88
b1 F
b1 N
0'
#89
b10 J
0$
1'
#90
b0 F
b10 N
0'
#91
b10000 J
1'
#92
b10000 N
0'
#93
b1 J
1$
1'
#94
b1 F
b1 N
0'
#95
b10 J
0$
1'
#96
b0 F
b10 N
0'
#97
b10000 J
1'
#98
b10000 N
0'
#99
b1 J
1$
1'
#100
b1 F
b1 N
0'
#101
b10 J
0$
1'
#102
b0 F
b10 N
0'
#103
b10000 J
1'
#104
b10000 N
0'
#105
b1 J
1$
1'
#106
b1 F
b1 N
0'
#107
b10 J
0$
1'
#108
b0 F
b10 N
0'
#109
b10000 J
1'
#110
b10000 N
0'
#111
b1 J
1$
1'
#112
b1 F
b1 N
0'
#113
b10 J
0$
1'
#114
b0 F
b10 N
0'
#115
b10000 J
1'
#116
b10000 N
0'
#117
b1 J
1$
1'
#118
b1 F
b1 N
0'
#119
b10 J
0$
1'
#120
b0 F
b10 N
0'
#121
b10000 J
1'
#122
b10000 N
0'
#123
b1 J
1$
1'
#124
b1 F
b1 N
0'
#125
b10 J
0$
1'
#126
b0 F
b10 N
0'
#127
b10000 J
1'
#128
b10000 N
0'
#129
b1 J
1$
1'
#130
b1 F
b1 N
0'
#131
b10 J
0$
1'
#132
b0 F
b10 N
0'
#133
b10000 J
1'
#134
b10000 N
0'
#135
b1 J
1$
1'
#136
b1 F
b1 N
0'
#137
b10 J
0$
1'
#138
b0 F
b10 N
0'
#139
b10000 J
1'
#140
b10000 N
0'
#141
b1 J
1$
1'
#142
b1 F
b1 N
0'
#143
b10 J
0$
1'
#144
b0 F
b10 N
0'
#145
b10000 J
1'
#146
b10000 N
0'
#147
b1 J
1$
1'
#148
b1 F
b1 N
0'
#149
b10 J
0$
1'
#150
b0 F
b10 N
0'
#151
b10000 J
1'
#152
b10000 N
0'
#153
b1 J
1$
1'
#154
b1 F
b1 N
0'
#155
b10 J
0$
1'
#156
b0 F
b10 N
0'
#157
b10000 J
1'
#158
b10000 N
0'
#159
b1 J
1$
1'
#160
b1 F
b1 N
0'
#161
b10 J
0$
1'
#162
b0 F
b10 N
0'
#163
b10000 J
1'
#164
b10000 N
0'
#165
b1 J
1$
1'
#166
b1 F
b1 N
0'
#167
b10 J
0$
1'
#168
b0 F
b10 N
0'
#169
b10000 J
1'
#170
b10000 N
0'
#171
b1 J
1$
1'
#172
b1 F
b1 N
0'
#173
b10 J
0$
1'
#174
b0 F
b10 N
0'
#175
b10000 J
1'
#176
b10000 N
0'
#177
b1 J
1$
1'
#178
b1 F
b1 N
0'
#179
b10 J
0$
1'
#180
b0 F
b10 N
0'
#181
b10000 J
1'
#182
b10000 N
0'
#183
b1 J
1$
1'
#184
b1 F
b1 N
0'
#185
b10 J
0$
1'
#186
b0 F
b10 N
0'
#187
b10000 J
1'
#188
b10000 N
0'
#189
b1 J
1$
1'
#190
b1 F
b1 N
0'
#191
b10 J
0$
1'
#192
b0 F
b10 N
0'
#193
b10000 J
1'
#194
b10000 N
0'
#195
b1 J
1$
1'
#196
b1 F
b1 N
0'
#197
b10 J
0$
1'
#198
b0 F
b10 N
0'
#199
b10000 J
1'
#200
b10000 N
0'
#201
b1 J
1$
1'
#202
b1 F
b1 N
0'
#203
b10 J
0$
1'
#204
b0 F
b10 N
0'
#205
b10000 J
1'
#206
b10000 N
0'
#207
b1 J
1$
1'
#208
b1 F
b1 N
0'
#209
b10 J
0$
1'
#210
b0 F
b10 N
0'
#211
b10000 J
1'
#212
b10000 N
0'
#213
b1 J
1$
1'
#214
b1 F
b1 N
0'
#215
b10 J
0$
1'
#216
b0 F
b10 N
0'
#217
b10000 J
1'
#218
b10000 N
0'
#219
b1 J
1$
1'
#220
b1 F
b1 N
0'
#221
b10 J
0$
1'
#222
b0 F
b10 N
0'
#223
b10000 J
1'
#224
b10000 N
0'
#225
b1 J
1$
1'
#226
b1 F
b1 N
0'
#227
b10 J
0$
1'
#228
b0 F
b10 N
0'
#229
b10000 J
1'
#230
b10000 N
0'
#231
b1 J
1$
1'
#232
b1 F
b1 N
0'
#233
b10 J
0$
1'
#234
b0 F
b10 N
0'
#235
b10000 J
1'
#236
b10000 N
0'
#237
b1 J
1$
1'
#238
b1 F
b1 N
0'
#239
b10 J
0$
1'
#240
b0 F
b10 N
0'
#241
b10000 J
1'
#242
b10000 N
0'
#243
b1 J
1$
1'
#244
b1 F
b1 N
0'
#245
b10 J
0$
1'
#246
b0 F
b10 N
0'
#247
b10000 J
1'
#248
b10000 N
0'
#249
b1 J
1$
1'
#250
b1 F
b1 N
0'
#251
b10 J
0$
1'
#252
b0 F
b10 N
0'
#253
b10000 J
1'
#254
b10000 N
0'
#255
b1 J
1$
1'
#256
b1 F
b1 N
0'
#257
b10 J
0$
1'
#258
b0 F
b10 N
0'
#259
b10000 J
1'
#260
b10000 N
0'
#261
b1 J
1$
1'
#262
b1 F
b1 N
0'
#263
b10 J
0$
1'
#264
b0 F
b10 N
0'
#265
b10000 J
1'
#266
b10000 N
0'
#267
b1 J
1$
1'
#268
b1 F
b1 N
0'
#269
b10 J
0$
1'
#270
b0 F
b10 N
0'
#271
b10000 J
1'
#272
b10000 N
0'
#273
b1 J
1$
1'
#274
b1 F
b1 N
0'
#275
b10 J
0$
1'
#276
b0 F
b10 N
0'
#277
b10000 J
1'
#278
b10000 N
0'
#279
b1 J
1$
1'
#280
b1 F
b1 N
0'
#281
b10 J
0$
1'
#282
b0 F
b10 N
0'
#283
b10000 J
1'
#284
b10000 N
0'
#285
b1 J
1$
1'
#286
b1 F
b1 N
0'
#287
b10 J
0$
1'
#288
b0 F
b10 N
0'
#289
b10000 J
1'
#290
b10000 N
0'
#291
b1 J
1$
1'
#292
b1 F
b1 N
0'
#293
b10 J
0$
1'
#294
b0 F
b10 N
0'
#295
b10000 J
1'
#296
b10000 N
0'
#297
b1 J
1$
1'
#298
b1 F
b1 N
0'
#299
b10 J
0$
1'
#300
b0 F
b10 N
0'
#301
b10000 J
1'
#302
b10000 N
0'
#303
b1 J
1$
1'
#304
b1 F
b1 N
0'
#305
b10 J
0$
1'
#306
b0 F
b10 N
0'
#307
b10000 J
1'
#308
b10000 N
0'
#309
b1 J
1$
1'
#310
b1 F
b1 N
0'
#311
b10 J
0$
1'
#312
b0 F
b10 N
0'
#313
b10000 J
1'
#314
b10000 N
0'
#315
b1 J
1$
1'
#316
b1 F
b1 N
0'
#317
b10 J
0$
1'
#318
b0 F
b10 N
0'
#319
b10000 J
1'
#320
b10000 N
0'
#321
b1 J
1$
1'
#322
b1 F
b1 N
0'
#323
b10 J
0$
1'
#324
b0 F
b10 N
0'
#325
b10000 J
1'
#326
b10000 N
0'
#327
b1 J
1$
1'
#328
b1 F
b1 N
0'
#329
b10 J
0$
1'
#330
b0 F
b10 N
0'
#331
b10000 J
1'
#332
b10000 N
0'
#333
b1 J
1$
1'
#334
b1 F
b1 N
0'
#335
b10 J
0$
1'
#336
b0 F
b10 N
0'
#337
b10000 J
1'
#338
b10000 N
0'
#339
b1 J
1$
1'
#340
b1 F
b1 N
0'
#341
b10 J
0$
1'
#342
b0 F
b10 N
0'
#343
b10000 J
1'
#344
b10000 N
0'
#345
b1 J
1$
1'
#346
b1 F
b1 N
0'
#347
b10 J
0$
1'
#348
b0 F
b10 N
0'
#349
b10000 J
1'
#350
b10000 N
0'
#351
b1 J
1$
1'
#352
b1 F
b1 N
0'
#353
b10 J
0$
1'
#354
b0 F
b10 N
0'
#355
b10000 J
1'
#356
b10000 N
0'
#357
b1 J
1$
1'
#358
b1 F
b1 N
0'
#359
b10 J
0$
1'
#360
b0 F
b10 N
0'
#361
b10000 J
1'
#362
b10000 N
0'
#363
b1 J
1$
1'
#364
b1 F
b1 N
0'
#365
b10 J
0$
1'
#366
b0 F
b10 N
0'
#367
b10000 J
1'
#368
b10000 N
0'
#369
b1 J
1$
1'
#370
b1 F
b1 N
0'
#371
b10 J
0$
1'
#372
b0 F
b10 N
0'
#373
b10000 J
1'
#374
b10000 N
0'
#375
b1 J
1$
1'
#376
b1 F
b1 N
0'
#377
b10 J
0$
1'
#378
b0 F
b10 N
0'
#379
b10000 J
1'
#380
b10000 N
0'
#381
b1 J
1$
1'
#382
b1 F
b1 N
0'
#383
b10 J
0$
1'
#384
b0 F
b10 N
0'
#385
b10000 J
1'
#386
b10000 N
0'
#387
b1 J
1$
1'
#388
b1 F
b1 N
0'
#389
b10 J
0$
1'
#390
b0 F
b10 N
0'
#391
b10000 J
1'
#392
b10000 N
0'
#393
b1 J
1$
1'
#394
b1 F
b1 N
0'
#395
b10 J
0$
1'
#396
b0 F
b10 N
0'
#397
b10000 J
1'
#398
b10000 N
0'
#399
b1 J
1$
1'
#400
b1 F
b1 N
0'
#401
b10 J
0$
1'
#402
b0 F
b10 N
0'
#403
b10000 J
1'
#404
b10000 N
0'
#405
b1 J
1$
1'
#406
b1 F
b1 N
0'
#407
b10 J
0$
1'
#408
b0 F
b10 N
0'
#409
b10000 J
1'
#410
b10000 N
0'
#411
b1 J
1$
1'
#412
b1 F
b1 N
0'
#413
b10 J
0$
1'
#414
b0 F
b10 N
0'
#415
b10000 J
1'
#416
b10000 N
0'
#417
b1 J
1$
1'
#418
b1 F
b1 N
0'
#419
b10 J
0$
1'
#420
b0 F
b10 N
0'
#421
b10000 J
1'
#422
b10000 N
0'
#423
b1 J
1$
1'
#424
b1 F
b1 N
0'
#425
b10 J
0$
1'
#426
b0 F
b10 N
0'
#427
b10000 J
1'
#428
b10000 N
0'
#429
b1 J
1$
1'
#430
b1 F
b1 N
0'
#431
b10 J
0$
1'
#432
b0 F
b10 N
0'
#433
b10000 J
1'
#434
b10000 N
0'
#435
b1 J
1$
1'
#436
b1 F
b1 N
0'
#437
b10 J
0$
1'
#438
b0 F
b10 N
0'
#439
b10000 J
1'
#440
b10000 N
0'
#441
b1 J
1$
1'
#442
b1 F
b1 N
0'
#443
b10 J
0$
1'
#444
b0 F
b10 N
0'
#445
b10000 J
1'
#446
b10000 N
0'
#447
b1 J
1$
1'
#448
b1 F
b1 N
0'
#449
b10 J
0$
1'
#450
b0 F
b10 N
0'
#451
b10000 J
1'
#452
b10000 N
0'
#453
b1 J
1$
1'
#454
b1 F
b1 N
0'
#455
b10 J
0$
1'
#456
b0 F
b10 N
0'
#457
b10000 J
1'
#458
b10000 N
0'
#459
b1 J
1$
1'
#460
b1 F
b1 N
0'
#461
b10 J
0$
1'
#462
b0 F
b10 N
0'
#463
b10000 J
1'
#464
b10000 N
0'
#465
b1 J
1$
1'
#466
b1 F
b1 N
0'
#467
b10 J
0$
1'
#468
b0 F
b10 N
0'
#469
b10000 J
1'
#470
b10000 N
0'
#471
b1 J
1$
1'
#472
b1 F
b1 N
0'
#473
b10 J
0$
1'
#474
b0 F
b10 N
0'
#475
b10000 J
1'
#476
b10000 N
0'
#477
b1 J
1$
1'
#478
b1 F
b1 N
0'
#479
b10 J
0$
1'
#480
b0 F
b10 N
0'
#481
b10000 J
1'
#482
b10000 N
0'
#483
b1 J
1$
1'
#484
b1 F
b1 N
0'
#485
b10 J
0$
1'
#486
b0 F
b10 N
0'
#487
b10000 J
1'
#488
b10000 N
0'
#489
b1 J
1$
1'
#490
b1 F
b1 N
0'
#491
b10 J
0$
1'
#492
b0 F
b10 N
0'
#493
b10000 J
1'
#494
b10000 N
0'
#495
b1 J
1$
1'
#496
b1 F
b1 N
0'
#497
b10 J
0$
1'
#498
b0 F
b10 N
0'
#499
b10000 J
1'
#500
b10000 N
0'
#501
b1 J
1$
1'
#502
b1 F
b1 N
0'
#503
b10 J
0$
1'
#504
b0 F
b10 N
0'
#505
b10000 J
1'
#506
b10000 N
0'
#507
b1 J
1$
1'
#508
b1 F
b1 N
0'
#509
b10 J
0$
1'
#510
b0 F
b10 N
0'
#511
b10000 J
1'
#512
b10000 N
0'
#513
b1 J
1$
1'
#514
b1 F
b1 N
0'
#515
b10 J
0$
1'
#516
b0 F
b10 N
0'
#517
b10000 J
1'
#518
b10000 N
0'
#519
b1 J
1$
1'
#520
b1 F
b1 N
0'
#521
b10 J
0$
1'
#522
b0 F
b10 N
0'
#523
b10000 J
1'
#524
b10000 N
0'
#525
b1 J
1$
1'
#526
b1 F
b1 N
0'
#527
b10 J
0$
1'
#528
b0 F
b10 N
0'
#529
b10000 J
1'
#530
b10000 N
0'
