bin/enpoint/Control/tester.vcd
$date
	Tue Jan 23 04:04:09 2018
$end
$version
	Icarus Verilog
$end
$timescale
	1s
$end
$scope module tester $end
$var wire 1 ! wbusy $end
$var wire 32 " wdata_out [31:0] $end
$var wire 64 # wdata_out2 [63:0] $end
$var wire 16 $ wdata_out3 [15:0] $end
$var reg 8 % rbRequest [7:0] $end
$var reg 8 & rbmRequestType [7:0] $end
$var reg 1 ' rclk $end
$var reg 64 ( rdata [63:0] $end
$var reg 1 ) renable $end
$var reg 32 * rparameter_Block [31:0] $end
$var reg 64 + rparameter_Block2 [63:0] $end
$var reg 1 , rrst $end
$var reg 16 - rwIndex [15:0] $end
$var reg 16 . rwLength [15:0] $end
$var reg 16 / rwValue [15:0] $end
$scope module control_intance $end
$var wire 1 0 clk $end
$var wire 64 1 data [63:0] $end
$var wire 1 2 enable $end
$var wire 32 3 parameter_Block [31:0] $end
$var wire 64 4 parameter_Block2 [63:0] $end
$var wire 1 5 rst $end
$var reg 64 6 address [63:0] $end
$var reg 32 7 addresstemp1 [31:0] $end
$var reg 32 8 addresstemp2 [31:0] $end
$var reg 8 9 bRequest [7:0] $end
$var reg 8 : bmRequestType [7:0] $end
$var reg 64 ; buffer_command [63:0] $end
$var reg 1 < busy $end
$var reg 32 = config_data [31:0] $end
$var reg 32 > config_trace [31:0] $end
$var reg 16 ? count [15:0] $end
$var reg 32 @ data_out [31:0] $end
$var reg 64 A data_out2 [63:0] $end
$var reg 16 B data_out3 [15:0] $end
$var reg 32 C dato [31:0] $end
$var reg 32 D datotemp1 [31:0] $end
$var reg 32 E datotemp2 [31:0] $end
$var reg 8 F debug_Unit_ID [7:0] $end
$var reg 1 G global $end
$var reg 8 H interface_ID [7:0] $end
$var reg 1 I local $end
$var reg 5 J next_state [4:0] $end
$var reg 32 K readWrite [31:0] $end
$var reg 1 L reset_endpoint $end
$var reg 1 M singl_data $end
$var reg 1 N specific $end
$var reg 5 O state [4:0] $end
$var reg 64 P tempoadress [63:0] $end
$var reg 16 Q wIndex [15:0] $end
$var reg 16 R wLength [15:0] $end
$var reg 16 S wValue [15:0] $end
$upscope $end
$upscope $end
$enddefinitions $end
#0
$dumpvars
bx S
bx R
bx Q
bx P
bx O
xN
xM
xL
bx K
bx J
xI
bx H
xG
bx F
bx E
bx D
bx C
bx B
bx A
bx @
bx ?
bx >
bx =
x<
bx ;
bx :
bx 9
bx 8
bx 7
bx 6
15
bx 4
bx 3
x2
bx0xxxxxxxxxxxxxxxxxxxxxx0xxxxxxxxxxxxxxxxxxxxxxxxxxxxxxxx 1
00
bx /
bx .
bx -
1,
bx +
bx *
x)
bx0xxxxxxxxxxxxxxxxxxxxxx0xxxxxxxxxxxxxxxxxxxxxxxxxxxxxxxx (
0'
bx &
bx %
bx $
bx #
bx "
x!
$end
#1
b10000110011111 =
bx0xxxxxxxxxxxxxxxxxxxxxx0xxxxxxxxxxxxxxxxxxxxxxxxxxxxxxxx (
1'
10
#2
bx0xxxxxxxxxxxxxxxxxxxxxx0xxxxxxxxxxxxxxxxxxxxxxxxxxxxxxxx (
b1 O
0'
00
#3
0L
b10 J
0<
0!
0M
b0xxxxxxxxxxxxxx S
bx0xxxxxxxxxxxxxxxxxxxxxx0xxxxxxxxxxxxxxxxxxxxxxxxxxxxxxxx (
1'
10
#4
bx0xxxxxxxxxxxxxxxxxxxxxx0xxxxxxxxxxxxxxxxxxxxxxxxxxxxxxxx (
0'
00
#5
b10 R
b0 Q
b0 S
b11 9
b100001 :
1'
10
1)
12
b10 .
b0 -
b0 /
b11 %
b100001 &
b1100 +
b1100 4
b1 *
b1 3
b10000100000001100000000000000000000000000000000000000000000010 (
b10000100000001100000000000000000000000000000000000000000000010 1
0,
05
#6
b10000100000001100000000000000000000000000000000000000000000010 (
b10 O
0'
00
#7
b10100 J
b10000100000001100000000000000000000000000000000000000000000010 (
1'
10
#8
b10000100000001100000000000000000000000000000000000000000000010 (
b10100 O
0'
00
#9
b1 J
b1100 6
1G
1<
1!
b10000100000001100000000000000000000000000000000000000000000010 (
1'
10
#10
b1 O
0'
00
b10000011 %
b10100001 &
b0 +
b0 4
b1010000101000001100000000000000000000000000000000000000000000010 (
b1010000101000001100000000000000000000000000000000000000000000010 1
#11
b10 J
0<
0!
b10000011 9
b10100001 :
b1010000101000001100000000000000000000000000000000000000000000010 (
1'
10
#12
b1010000101000001100000000000000000000000000000000000000000000010 (
b10 O
0'
00
#13
b1110 J
b1010000101000001100000000000000000000000000000000000000000000010 (
1'
10
#14
b1010000101000001100000000000000000000000000000000000000000000010 (
b1110 O
0'
00
#15
b1100 A
b1100 #
1<
1!
b1 J
b1010000101000001100000000000000000000000000000000000000000000010 (
1'
10
#16
b1010000101000001100000000000000000000000000000000000000000000010 (
b1 O
0'
00
#17
b10 J
0<
0!
b1010000101000001100000000000000000000000000000000000000000000010 (
1'
10
#18
b1010000101000001100000000000000000000000000000000000000000000010 (
b10 O
0'
00
#19
b1110 J
b1010000101000001100000000000000000000000000000000000000000000010 (
1'
10
#20
b1010000101000001100000000000000000000000000000000000000000000010 (
b1110 O
0'
00
#21
1<
1!
b1 J
b1010000101000001100000000000000000000000000000000000000000000010 (
1'
10
#22
b1010000101000001100000000000000000000000000000000000000000000010 (
b1 O
0'
00
#23
b10 J
0<
0!
b1010000101000001100000000000000000000000000000000000000000000010 (
1'
10
#24
b1010000101000001100000000000000000000000000000000000000000000010 (
b10 O
0'
00
#25
b1110 J
b1010000101000001100000000000000000000000000000000000000000000010 (
1'
10
#26
b1010000101000001100000000000000000000000000000000000000000000010 (
b1110 O
0'
00
#27
1<
1!
b1 J
b1010000101000001100000000000000000000000000000000000000000000010 (
1'
10
#28
b1010000101000001100000000000000000000000000000000000000000000010 (
b1 O
0'
00
#29
b10 J
0<
0!
b1010000101000001100000000000000000000000000000000000000000000010 (
1'
10
#30
b1010000101000001100000000000000000000000000000000000000000000010 (
b10 O
0'
00
#31
b1110 J
b1010000101000001100000000000000000000000000000000000000000000010 (
1'
10
#32
b1010000101000001100000000000000000000000000000000000000000000010 (
b1110 O
0'
00
#33
1<
1!
b1 J
b1010000101000001100000000000000000000000000000000000000000000010 (
1'
10
#34
b1010000101000001100000000000000000000000000000000000000000000010 (
b1 O
0'
00
#35
b10 J
0<
0!
b1010000101000001100000000000000000000000000000000000000000000010 (
1'
10
#36
b1010000101000001100000000000000000000000000000000000000000000010 (
b10 O
0'
00
#37
b1110 J
b1010000101000001100000000000000000000000000000000000000000000010 (
1'
10
#38
b1010000101000001100000000000000000000000000000000000000000000010 (
b1110 O
0'
00
#39
1<
1!
b1 J
b1010000101000001100000000000000000000000000000000000000000000010 (
1'
10
#40
b1010000101000001100000000000000000000000000000000000000000000010 (
b1 O
0'
00
#41
b10 J
0<
0!
b1010000101000001100000000000000000000000000000000000000000000010 (
1'
10
#42
b1010000101000001100000000000000000000000000000000000000000000010 (
b10 O
0'
00
#43
b1110 J
b1010000101000001100000000000000000000000000000000000000000000010 (
1'
10
#44
b1010000101000001100000000000000000000000000000000000000000000010 (
b1110 O
0'
00
#45
1<
1!
b1 J
b1010000101000001100000000000000000000000000000000000000000000010 (
1'
10
#46
b1010000101000001100000000000000000000000000000000000000000000010 (
b1 O
0'
00
#47
b10 J
0<
0!
b1010000101000001100000000000000000000000000000000000000000000010 (
1'
10
#48
b1010000101000001100000000000000000000000000000000000000000000010 (
b10 O
0'
00
#49
b1110 J
b1010000101000001100000000000000000000000000000000000000000000010 (
1'
10
#50
b1010000101000001100000000000000000000000000000000000000000000010 (
b1110 O
0'
00
#51
1<
1!
b1 J
b1010000101000001100000000000000000000000000000000000000000000010 (
1'
10
#52
b1010000101000001100000000000000000000000000000000000000000000010 (
b1 O
0'
00
#53
b10 J
0<
0!
b1010000101000001100000000000000000000000000000000000000000000010 (
1'
10
#54
b1010000101000001100000000000000000000000000000000000000000000010 (
b10 O
0'
00
#55
b1110 J
b1010000101000001100000000000000000000000000000000000000000000010 (
1'
10
#56
b1010000101000001100000000000000000000000000000000000000000000010 (
b1110 O
0'
00
#57
1<
1!
b1 J
b1010000101000001100000000000000000000000000000000000000000000010 (
1'
10
#58
b1010000101000001100000000000000000000000000000000000000000000010 (
b1 O
0'
00
#59
b10 J
0<
0!
b1010000101000001100000000000000000000000000000000000000000000010 (
1'
10
#60
b1010000101000001100000000000000000000000000000000000000000000010 (
b10 O
0'
00
#61
b1110 J
b1010000101000001100000000000000000000000000000000000000000000010 (
1'
10
#62
b1010000101000001100000000000000000000000000000000000000000000010 (
b1110 O
0'
00
#63
1<
1!
b1 J
b1010000101000001100000000000000000000000000000000000000000000010 (
1'
10
#64
b1010000101000001100000000000000000000000000000000000000000000010 (
b1 O
0'
00
#65
b10 J
0<
0!
b1010000101000001100000000000000000000000000000000000000000000010 (
1'
10
#66
b1010000101000001100000000000000000000000000000000000000000000010 (
b10 O
0'
00
#67
b1110 J
b1010000101000001100000000000000000000000000000000000000000000010 (
1'
10
#68
b1010000101000001100000000000000000000000000000000000000000000010 (
b1110 O
0'
00
#69
1<
1!
b1 J
b1010000101000001100000000000000000000000000000000000000000000010 (
1'
10
#70
b1010000101000001100000000000000000000000000000000000000000000010 (
b1 O
0'
00
#71
b10 J
0<
0!
b1010000101000001100000000000000000000000000000000000000000000010 (
1'
10
#72
b1010000101000001100000000000000000000000000000000000000000000010 (
b10 O
0'
00
#73
b1110 J
b1010000101000001100000000000000000000000000000000000000000000010 (
1'
10
#74
b1010000101000001100000000000000000000000000000000000000000000010 (
b1110 O
0'
00
#75
1<
1!
b1 J
b1010000101000001100000000000000000000000000000000000000000000010 (
1'
10
#76
b1010000101000001100000000000000000000000000000000000000000000010 (
b1 O
0'
00
#77
b10 J
0<
0!
b1010000101000001100000000000000000000000000000000000000000000010 (
1'
10
#78
b1010000101000001100000000000000000000000000000000000000000000010 (
b10 O
0'
00
#79
b1110 J
b1010000101000001100000000000000000000000000000000000000000000010 (
1'
10
#80
b1010000101000001100000000000000000000000000000000000000000000010 (
b1110 O
0'
00
#81
1<
1!
b1 J
b1010000101000001100000000000000000000000000000000000000000000010 (
1'
10
#82
b1010000101000001100000000000000000000000000000000000000000000010 (
b1 O
0'
00
#83
b10 J
0<
0!
b1010000101000001100000000000000000000000000000000000000000000010 (
1'
10
#84
b1010000101000001100000000000000000000000000000000000000000000010 (
b10 O
0'
00
#85
b1110 J
b1010000101000001100000000000000000000000000000000000000000000010 (
1'
10
#86
b1010000101000001100000000000000000000000000000000000000000000010 (
b1110 O
0'
00
#87
1<
1!
b1 J
b1010000101000001100000000000000000000000000000000000000000000010 (
1'
10
#88
b1010000101000001100000000000000000000000000000000000000000000010 (
b1 O
0'
00
#89
b10 J
0<
0!
b1010000101000001100000000000000000000000000000000000000000000010 (
1'
10
#90
b1010000101000001100000000000000000000000000000000000000000000010 (
b10 O
0'
00
#91
b1110 J
b1010000101000001100000000000000000000000000000000000000000000010 (
1'
10
#92
b1010000101000001100000000000000000000000000000000000000000000010 (
b1110 O
0'
00
#93
1<
1!
b1 J
b1010000101000001100000000000000000000000000000000000000000000010 (
1'
10
#94
b1010000101000001100000000000000000000000000000000000000000000010 (
b1 O
0'
00
#95
b10 J
0<
0!
b1010000101000001100000000000000000000000000000000000000000000010 (
1'
10
#96
b1010000101000001100000000000000000000000000000000000000000000010 (
b10 O
0'
00
#97
b1110 J
b1010000101000001100000000000000000000000000000000000000000000010 (
1'
10
#98
b1010000101000001100000000000000000000000000000000000000000000010 (
b1110 O
0'
00
#99
1<
1!
b1 J
b1010000101000001100000000000000000000000000000000000000000000010 (
1'
10
#100
b1010000101000001100000000000000000000000000000000000000000000010 (
b1 O
0'
00
#101
b10 J
0<
0!
b1010000101000001100000000000000000000000000000000000000000000010 (
1'
10
#102
b1010000101000001100000000000000000000000000000000000000000000010 (
b10 O
0'
00
#103
b1110 J
b1010000101000001100000000000000000000000000000000000000000000010 (
1'
10
#104
b1010000101000001100000000000000000000000000000000000000000000010 (
b1110 O
0'
00
#105
1<
1!
b1 J
b1010000101000001100000000000000000000000000000000000000000000010 (
1'
10
#106
b1010000101000001100000000000000000000000000000000000000000000010 (
b1 O
0'
00
#107
b10 J
0<
0!
b1010000101000001100000000000000000000000000000000000000000000010 (
1'
10
#108
b1010000101000001100000000000000000000000000000000000000000000010 (
b10 O
0'
00
#109
b1110 J
b1010000101000001100000000000000000000000000000000000000000000010 (
1'
10
#110
b1010000101000001100000000000000000000000000000000000000000000010 (
b1110 O
0'
00
#111
1<
1!
b1 J
b1010000101000001100000000000000000000000000000000000000000000010 (
1'
10
#112
b1010000101000001100000000000000000000000000000000000000000000010 (
b1 O
0'
00
#113
b10 J
0<
0!
b1010000101000001100000000000000000000000000000000000000000000010 (
1'
10
#114
b1010000101000001100000000000000000000000000000000000000000000010 (
b10 O
0'
00
#115
b1110 J
b1010000101000001100000000000000000000000000000000000000000000010 (
1'
10
#116
b1010000101000001100000000000000000000000000000000000000000000010 (
b1110 O
0'
00
#117
1<
1!
b1 J
b1010000101000001100000000000000000000000000000000000000000000010 (
1'
10
#118
b1010000101000001100000000000000000000000000000000000000000000010 (
b1 O
0'
00
#119
b10 J
0<
0!
b1010000101000001100000000000000000000000000000000000000000000010 (
1'
10
#120
b1010000101000001100000000000000000000000000000000000000000000010 (
b10 O
0'
00
#121
b1110 J
b1010000101000001100000000000000000000000000000000000000000000010 (
1'
10
#122
b1010000101000001100000000000000000000000000000000000000000000010 (
b1110 O
0'
00
#123
1<
1!
b1 J
b1010000101000001100000000000000000000000000000000000000000000010 (
1'
10
#124
b1010000101000001100000000000000000000000000000000000000000000010 (
b1 O
0'
00
#125
b10 J
0<
0!
b1010000101000001100000000000000000000000000000000000000000000010 (
1'
10
#126
b1010000101000001100000000000000000000000000000000000000000000010 (
b10 O
0'
00
#127
b1110 J
b1010000101000001100000000000000000000000000000000000000000000010 (
1'
10
#128
b1010000101000001100000000000000000000000000000000000000000000010 (
b1110 O
0'
00
#129
1<
1!
b1 J
b1010000101000001100000000000000000000000000000000000000000000010 (
1'
10
#130
b1010000101000001100000000000000000000000000000000000000000000010 (
b1 O
0'
00
#131
b10 J
0<
0!
b1010000101000001100000000000000000000000000000000000000000000010 (
1'
10
#132
b1010000101000001100000000000000000000000000000000000000000000010 (
b10 O
0'
00
#133
b1110 J
b1010000101000001100000000000000000000000000000000000000000000010 (
1'
10
#134
b1010000101000001100000000000000000000000000000000000000000000010 (
b1110 O
0'
00
#135
1<
1!
b1 J
b1010000101000001100000000000000000000000000000000000000000000010 (
1'
10
#136
b1010000101000001100000000000000000000000000000000000000000000010 (
b1 O
0'
00
#137
b10 J
0<
0!
b1010000101000001100000000000000000000000000000000000000000000010 (
1'
10
#138
b1010000101000001100000000000000000000000000000000000000000000010 (
b10 O
0'
00
#139
b1110 J
b1010000101000001100000000000000000000000000000000000000000000010 (
1'
10
#140
b1010000101000001100000000000000000000000000000000000000000000010 (
b1110 O
0'
00
#141
1<
1!
b1 J
b1010000101000001100000000000000000000000000000000000000000000010 (
1'
10
#142
b1010000101000001100000000000000000000000000000000000000000000010 (
b1 O
0'
00
#143
b10 J
0<
0!
b1010000101000001100000000000000000000000000000000000000000000010 (
1'
10
#144
b1010000101000001100000000000000000000000000000000000000000000010 (
b10 O
0'
00
#145
b1110 J
b1010000101000001100000000000000000000000000000000000000000000010 (
1'
10
#146
b1010000101000001100000000000000000000000000000000000000000000010 (
b1110 O
0'
00
#147
1<
1!
b1 J
b1010000101000001100000000000000000000000000000000000000000000010 (
1'
10
#148
b1010000101000001100000000000000000000000000000000000000000000010 (
b1 O
0'
00
#149
b10 J
0<
0!
b1010000101000001100000000000000000000000000000000000000000000010 (
1'
10
#150
b1010000101000001100000000000000000000000000000000000000000000010 (
b10 O
0'
00
#151
b1110 J
b1010000101000001100000000000000000000000000000000000000000000010 (
1'
10
#152
b1010000101000001100000000000000000000000000000000000000000000010 (
b1110 O
0'
00
#153
1<
1!
b1 J
b1010000101000001100000000000000000000000000000000000000000000010 (
1'
10
#154
b1010000101000001100000000000000000000000000000000000000000000010 (
b1 O
0'
00
#155
b10 J
0<
0!
b1010000101000001100000000000000000000000000000000000000000000010 (
1'
10
#156
b1010000101000001100000000000000000000000000000000000000000000010 (
b10 O
0'
00
#157
b1110 J
b1010000101000001100000000000000000000000000000000000000000000010 (
1'
10
#158
b1010000101000001100000000000000000000000000000000000000000000010 (
b1110 O
0'
00
#159
1<
1!
b1 J
b1010000101000001100000000000000000000000000000000000000000000010 (
1'
10
#160
b1010000101000001100000000000000000000000000000000000000000000010 (
b1 O
0'
00
#161
b10 J
0<
0!
b1010000101000001100000000000000000000000000000000000000000000010 (
1'
10
#162
b1010000101000001100000000000000000000000000000000000000000000010 (
b10 O
0'
00
#163
b1110 J
b1010000101000001100000000000000000000000000000000000000000000010 (
1'
10
#164
b1010000101000001100000000000000000000000000000000000000000000010 (
b1110 O
0'
00
#165
1<
1!
b1 J
b1010000101000001100000000000000000000000000000000000000000000010 (
1'
10
#166
b1010000101000001100000000000000000000000000000000000000000000010 (
b1 O
0'
00
#167
b10 J
0<
0!
b1010000101000001100000000000000000000000000000000000000000000010 (
1'
10
#168
b1010000101000001100000000000000000000000000000000000000000000010 (
b10 O
0'
00
#169
b1110 J
b1010000101000001100000000000000000000000000000000000000000000010 (
1'
10
#170
b1010000101000001100000000000000000000000000000000000000000000010 (
b1110 O
0'
00
#171
1<
1!
b1 J
b1010000101000001100000000000000000000000000000000000000000000010 (
1'
10
#172
b1010000101000001100000000000000000000000000000000000000000000010 (
b1 O
0'
00
#173
b10 J
0<
0!
b1010000101000001100000000000000000000000000000000000000000000010 (
1'
10
#174
b1010000101000001100000000000000000000000000000000000000000000010 (
b10 O
0'
00
#175
b1110 J
b1010000101000001100000000000000000000000000000000000000000000010 (
1'
10
#176
b1010000101000001100000000000000000000000000000000000000000000010 (
b1110 O
0'
00
#177
1<
1!
b1 J
b1010000101000001100000000000000000000000000000000000000000000010 (
1'
10
#178
b1010000101000001100000000000000000000000000000000000000000000010 (
b1 O
0'
00
#179
b10 J
0<
0!
b1010000101000001100000000000000000000000000000000000000000000010 (
1'
10
#180
b1010000101000001100000000000000000000000000000000000000000000010 (
b10 O
0'
00
#181
b1110 J
b1010000101000001100000000000000000000000000000000000000000000010 (
1'
10
#182
b1010000101000001100000000000000000000000000000000000000000000010 (
b1110 O
0'
00
#183
1<
1!
b1 J
b1010000101000001100000000000000000000000000000000000000000000010 (
1'
10
#184
b1010000101000001100000000000000000000000000000000000000000000010 (
b1 O
0'
00
#185
b10 J
0<
0!
b1010000101000001100000000000000000000000000000000000000000000010 (
1'
10
#186
b1010000101000001100000000000000000000000000000000000000000000010 (
b10 O
0'
00
#187
b1110 J
b1010000101000001100000000000000000000000000000000000000000000010 (
1'
10
#188
b1010000101000001100000000000000000000000000000000000000000000010 (
b1110 O
0'
00
#189
1<
1!
b1 J
b1010000101000001100000000000000000000000000000000000000000000010 (
1'
10
#190
b1010000101000001100000000000000000000000000000000000000000000010 (
b1 O
0'
00
#191
b10 J
0<
0!
b1010000101000001100000000000000000000000000000000000000000000010 (
1'
10
#192
b1010000101000001100000000000000000000000000000000000000000000010 (
b10 O
0'
00
#193
b1110 J
b1010000101000001100000000000000000000000000000000000000000000010 (
1'
10
#194
b1010000101000001100000000000000000000000000000000000000000000010 (
b1110 O
0'
00
#195
1<
1!
b1 J
b1010000101000001100000000000000000000000000000000000000000000010 (
1'
10
#196
b1010000101000001100000000000000000000000000000000000000000000010 (
b1 O
0'
00
#197
b10 J
0<
0!
b1010000101000001100000000000000000000000000000000000000000000010 (
1'
10
#198
b1010000101000001100000000000000000000000000000000000000000000010 (
b10 O
0'
00
#199
b1110 J
b1010000101000001100000000000000000000000000000000000000000000010 (
1'
10
#200
b1010000101000001100000000000000000000000000000000000000000000010 (
b1110 O
0'
00
#201
1<
1!
b1 J
b1010000101000001100000000000000000000000000000000000000000000010 (
1'
10
#202
b1010000101000001100000000000000000000000000000000000000000000010 (
b1 O
0'
00
#203
b10 J
0<
0!
b1010000101000001100000000000000000000000000000000000000000000010 (
1'
10
#204
b1010000101000001100000000000000000000000000000000000000000000010 (
b10 O
0'
00
#205
b1110 J
b1010000101000001100000000000000000000000000000000000000000000010 (
1'
10
#206
b1010000101000001100000000000000000000000000000000000000000000010 (
b1110 O
0'
00
#207
1<
1!
b1 J
b1010000101000001100000000000000000000000000000000000000000000010 (
1'
10
#208
b1010000101000001100000000000000000000000000000000000000000000010 (
b1 O
0'
00
#209
b10 J
0<
0!
b1010000101000001100000000000000000000000000000000000000000000010 (
1'
10
#210
b1010000101000001100000000000000000000000000000000000000000000010 (
b10 O
0'
00
#211
b1110 J
b1010000101000001100000000000000000000000000000000000000000000010 (
1'
10
#212
b1010000101000001100000000000000000000000000000000000000000000010 (
b1110 O
0'
00
#213
1<
1!
b1 J
b1010000101000001100000000000000000000000000000000000000000000010 (
1'
10
#214
b1010000101000001100000000000000000000000000000000000000000000010 (
b1 O
0'
00
#215
b10 J
0<
0!
b1010000101000001100000000000000000000000000000000000000000000010 (
1'
10
#216
b1010000101000001100000000000000000000000000000000000000000000010 (
b10 O
0'
00
#217
b1110 J
b1010000101000001100000000000000000000000000000000000000000000010 (
1'
10
#218
b1010000101000001100000000000000000000000000000000000000000000010 (
b1110 O
0'
00
#219
1<
1!
b1 J
b1010000101000001100000000000000000000000000000000000000000000010 (
1'
10
#220
b1010000101000001100000000000000000000000000000000000000000000010 (
b1 O
0'
00
#221
b10 J
0<
0!
b1010000101000001100000000000000000000000000000000000000000000010 (
1'
10
#222
b1010000101000001100000000000000000000000000000000000000000000010 (
b10 O
0'
00
#223
b1110 J
b1010000101000001100000000000000000000000000000000000000000000010 (
1'
10
#224
b1010000101000001100000000000000000000000000000000000000000000010 (
b1110 O
0'
00
#225
1<
1!
b1 J
b1010000101000001100000000000000000000000000000000000000000000010 (
1'
10
#226
b1010000101000001100000000000000000000000000000000000000000000010 (
b1 O
0'
00
#227
b10 J
0<
0!
b1010000101000001100000000000000000000000000000000000000000000010 (
1'
10
#228
b1010000101000001100000000000000000000000000000000000000000000010 (
b10 O
0'
00
#229
b1110 J
b1010000101000001100000000000000000000000000000000000000000000010 (
1'
10
#230
b1010000101000001100000000000000000000000000000000000000000000010 (
b1110 O
0'
00
#231
1<
1!
b1 J
b1010000101000001100000000000000000000000000000000000000000000010 (
1'
10
#232
b1010000101000001100000000000000000000000000000000000000000000010 (
b1 O
0'
00
#233
b10 J
0<
0!
b1010000101000001100000000000000000000000000000000000000000000010 (
1'
10
#234
b1010000101000001100000000000000000000000000000000000000000000010 (
b10 O
0'
00
#235
b1110 J
b1010000101000001100000000000000000000000000000000000000000000010 (
1'
10
#236
b1010000101000001100000000000000000000000000000000000000000000010 (
b1110 O
0'
00
#237
1<
1!
b1 J
b1010000101000001100000000000000000000000000000000000000000000010 (
1'
10
#238
b1010000101000001100000000000000000000000000000000000000000000010 (
b1 O
0'
00
#239
b10 J
0<
0!
b1010000101000001100000000000000000000000000000000000000000000010 (
1'
10
#240
b1010000101000001100000000000000000000000000000000000000000000010 (
b10 O
0'
00
#241
b1110 J
b1010000101000001100000000000000000000000000000000000000000000010 (
1'
10
#242
b1010000101000001100000000000000000000000000000000000000000000010 (
b1110 O
0'
00
#243
1<
1!
b1 J
b1010000101000001100000000000000000000000000000000000000000000010 (
1'
10
#244
b1010000101000001100000000000000000000000000000000000000000000010 (
b1 O
0'
00
#245
b10 J
0<
0!
b1010000101000001100000000000000000000000000000000000000000000010 (
1'
10
#246
b1010000101000001100000000000000000000000000000000000000000000010 (
b10 O
0'
00
#247
b1110 J
b1010000101000001100000000000000000000000000000000000000000000010 (
1'
10
#248
b1010000101000001100000000000000000000000000000000000000000000010 (
b1110 O
0'
00
#249
1<
1!
b1 J
b1010000101000001100000000000000000000000000000000000000000000010 (
1'
10
#250
b1010000101000001100000000000000000000000000000000000000000000010 (
b1 O
0'
00
#251
b10 J
0<
0!
b1010000101000001100000000000000000000000000000000000000000000010 (
1'
10
#252
b1010000101000001100000000000000000000000000000000000000000000010 (
b10 O
0'
00
#253
b1110 J
b1010000101000001100000000000000000000000000000000000000000000010 (
1'
10
#254
b1010000101000001100000000000000000000000000000000000000000000010 (
b1110 O
0'
00
#255
1<
1!
b1 J
b1010000101000001100000000000000000000000000000000000000000000010 (
1'
10
#256
b1010000101000001100000000000000000000000000000000000000000000010 (
b1 O
0'
00
#257
b10 J
0<
0!
b1010000101000001100000000000000000000000000000000000000000000010 (
1'
10
#258
b1010000101000001100000000000000000000000000000000000000000000010 (
b10 O
0'
00
#259
b1110 J
b1010000101000001100000000000000000000000000000000000000000000010 (
1'
10
#260
b1010000101000001100000000000000000000000000000000000000000000010 (
b1110 O
0'
00
#261
1<
1!
b1 J
b1010000101000001100000000000000000000000000000000000000000000010 (
1'
10
#262
b1010000101000001100000000000000000000000000000000000000000000010 (
b1 O
0'
00
#263
b10 J
0<
0!
b1010000101000001100000000000000000000000000000000000000000000010 (
1'
10
#264
b1010000101000001100000000000000000000000000000000000000000000010 (
b10 O
0'
00
#265
b1110 J
b1010000101000001100000000000000000000000000000000000000000000010 (
1'
10
#266
b1010000101000001100000000000000000000000000000000000000000000010 (
b1110 O
0'
00
#267
1<
1!
b1 J
b1010000101000001100000000000000000000000000000000000000000000010 (
1'
10
#268
b1010000101000001100000000000000000000000000000000000000000000010 (
b1 O
0'
00
#269
b10 J
0<
0!
b1010000101000001100000000000000000000000000000000000000000000010 (
1'
10
#270
b1010000101000001100000000000000000000000000000000000000000000010 (
b10 O
0'
00
#271
b1110 J
b1010000101000001100000000000000000000000000000000000000000000010 (
1'
10
#272
b1010000101000001100000000000000000000000000000000000000000000010 (
b1110 O
0'
00
#273
1<
1!
b1 J
b1010000101000001100000000000000000000000000000000000000000000010 (
1'
10
#274
b1010000101000001100000000000000000000000000000000000000000000010 (
b1 O
0'
00
#275
b10 J
0<
0!
b1010000101000001100000000000000000000000000000000000000000000010 (
1'
10
#276
b1010000101000001100000000000000000000000000000000000000000000010 (
b10 O
0'
00
#277
b1110 J
b1010000101000001100000000000000000000000000000000000000000000010 (
1'
10
#278
b1010000101000001100000000000000000000000000000000000000000000010 (
b1110 O
0'
00
#279
1<
1!
b1 J
b1010000101000001100000000000000000000000000000000000000000000010 (
1'
10
#280
b1010000101000001100000000000000000000000000000000000000000000010 (
b1 O
0'
00
#281
b10 J
0<
0!
b1010000101000001100000000000000000000000000000000000000000000010 (
1'
10
#282
b1010000101000001100000000000000000000000000000000000000000000010 (
b10 O
0'
00
#283
b1110 J
b1010000101000001100000000000000000000000000000000000000000000010 (
1'
10
#284
b1010000101000001100000000000000000000000000000000000000000000010 (
b1110 O
0'
00
#285
1<
1!
b1 J
b1010000101000001100000000000000000000000000000000000000000000010 (
1'
10
#286
b1010000101000001100000000000000000000000000000000000000000000010 (
b1 O
0'
00
#287
b10 J
0<
0!
b1010000101000001100000000000000000000000000000000000000000000010 (
1'
10
#288
b1010000101000001100000000000000000000000000000000000000000000010 (
b10 O
0'
00
#289
b1110 J
b1010000101000001100000000000000000000000000000000000000000000010 (
1'
10
#290
b1010000101000001100000000000000000000000000000000000000000000010 (
b1110 O
0'
00
#291
1<
1!
b1 J
b1010000101000001100000000000000000000000000000000000000000000010 (
1'
10
#292
b1010000101000001100000000000000000000000000000000000000000000010 (
b1 O
0'
00
#293
b10 J
0<
0!
b1010000101000001100000000000000000000000000000000000000000000010 (
1'
10
#294
b1010000101000001100000000000000000000000000000000000000000000010 (
b10 O
0'
00
#295
b1110 J
b1010000101000001100000000000000000000000000000000000000000000010 (
1'
10
#296
b1010000101000001100000000000000000000000000000000000000000000010 (
b1110 O
0'
00
#297
1<
1!
b1 J
b1010000101000001100000000000000000000000000000000000000000000010 (
1'
10
#298
b1010000101000001100000000000000000000000000000000000000000000010 (
b1 O
0'
00
#299
b10 J
0<
0!
b1010000101000001100000000000000000000000000000000000000000000010 (
1'
10
#300
b1010000101000001100000000000000000000000000000000000000000000010 (
b10 O
0'
00
#301
b1110 J
b1010000101000001100000000000000000000000000000000000000000000010 (
1'
10
#302
b1010000101000001100000000000000000000000000000000000000000000010 (
b1110 O
0'
00
#303
1<
1!
b1 J
b1010000101000001100000000000000000000000000000000000000000000010 (
1'
10
#304
b1010000101000001100000000000000000000000000000000000000000000010 (
b1 O
0'
00
#305
b10 J
0<
0!
b1010000101000001100000000000000000000000000000000000000000000010 (
1'
10
#306
b1010000101000001100000000000000000000000000000000000000000000010 (
b10 O
0'
00
#307
b1110 J
b1010000101000001100000000000000000000000000000000000000000000010 (
1'
10
#308
b1010000101000001100000000000000000000000000000000000000000000010 (
b1110 O
0'
00
#309
1<
1!
b1 J
b1010000101000001100000000000000000000000000000000000000000000010 (
1'
10
#310
b1010000101000001100000000000000000000000000000000000000000000010 (
b1 O
0'
00
#311
b10 J
0<
0!
b1010000101000001100000000000000000000000000000000000000000000010 (
1'
10
#312
b1010000101000001100000000000000000000000000000000000000000000010 (
b10 O
0'
00
#313
b1110 J
b1010000101000001100000000000000000000000000000000000000000000010 (
1'
10
#314
b1010000101000001100000000000000000000000000000000000000000000010 (
b1110 O
0'
00
#315
1<
1!
b1 J
b1010000101000001100000000000000000000000000000000000000000000010 (
1'
10
#316
b1010000101000001100000000000000000000000000000000000000000000010 (
b1 O
0'
00
#317
b10 J
0<
0!
b1010000101000001100000000000000000000000000000000000000000000010 (
1'
10
#318
b1010000101000001100000000000000000000000000000000000000000000010 (
b10 O
0'
00
#319
b1110 J
b1010000101000001100000000000000000000000000000000000000000000010 (
1'
10
#320
b1010000101000001100000000000000000000000000000000000000000000010 (
b1110 O
0'
00
