bin/enpoint/Control/tester.vcd
$date
	Sun Oct  7 21:19:58 2018
$end
$version
	Icarus Verilog
$end
$timescale
	1s
$end
$scope module tester $end
$var wire 16 ! wdata_out3 [15:0] $end
$var wire 64 " wdata_out2 [63:0] $end
$var wire 32 # wdata_out [31:0] $end
$var wire 1 $ wbusy $end
$var reg 8 % rbRequest [7:0] $end
$var reg 8 & rbmRequestType [7:0] $end
$var reg 1 ' rclk $end
$var reg 64 ( rdata [63:0] $end
$var reg 1 ) renable $end
$var reg 32 * rparameter_Block [31:0] $end
$var reg 64 + rparameter_Block2 [63:0] $end
$var reg 1 , rrst $end
$var reg 16 - rwIndex [15:0] $end
$var reg 16 . rwLength [15:0] $end
$var reg 16 / rwValue [15:0] $end
$scope module control_intance $end
$var wire 1 ' clk $end
$var wire 64 0 data [63:0] $end
$var wire 1 ) enable $end
$var wire 16 1 parameter_Block16 [15:0] $end
$var wire 32 2 parameter_Block32 [31:0] $end
$var wire 64 3 parameter_Block64 [63:0] $end
$var wire 1 , rst $end
$var wire 32 4 wget_optmode [31:0] $end
$var reg 64 5 address [63:0] $end
$var reg 32 6 addresstemp1 [31:0] $end
$var reg 32 7 addresstemp2 [31:0] $end
$var reg 8 8 bRequest [7:0] $end
$var reg 8 9 bmRequestType [7:0] $end
$var reg 64 : buffer_command [63:0] $end
$var reg 1 $ busy $end
$var reg 32 ; config_data [31:0] $end
$var reg 16 < config_trace [15:0] $end
$var reg 16 = count [15:0] $end
$var reg 16 > data_out16 [15:0] $end
$var reg 32 ? data_out32 [31:0] $end
$var reg 64 @ data_out64 [63:0] $end
$var reg 32 A dato [31:0] $end
$var reg 32 B datotemp1 [31:0] $end
$var reg 32 C datotemp2 [31:0] $end
$var reg 8 D debug_Unit_ID [7:0] $end
$var reg 16 E error_reg [15:0] $end
$var reg 1 F global $end
$var reg 8 G interface_ID [7:0] $end
$var reg 1 H local $end
$var reg 5 I next_state [4:0] $end
$var reg 9 J rSelect [8:0] $end
$var reg 1 K reset_endpoint $end
$var reg 1 L singl_data $end
$var reg 1 M specific $end
$var reg 5 N state [4:0] $end
$var reg 64 O tempoadress [63:0] $end
$var reg 16 P wIndex [15:0] $end
$var reg 16 Q wLength [15:0] $end
$var reg 16 R wValue [15:0] $end
$var reg 32 S wset_optmode [31:0] $end
$upscope $end
$upscope $end
$enddefinitions $end
#0
$dumpvars
bx S
bx R
bx Q
bx P
bx O
bx N
xM
xL
xK
bx J
bx I
xH
bx G
xF
bx E
bx D
bx C
bx B
bx A
bx @
bx ?
bx >
bx =
bx <
bx ;
bx :
bx 9
bx 8
bx 7
bx 6
bx 5
bz 4
bx 3
bx 2
bz 1
bx0xxxxxxxxxxxxxxxxxxxxxx0xxxxxxxxxxxxxxxxxxxxxxxxxxxxxxxx 0
bx /
bx .
bx -
1,
bx +
bx *
x)
bx0xxxxxxxxxxxxxxxxxxxxxx0xxxxxxxxxxxxxxxxxxxxxxxxxxxxxxxx (
0'
bx &
bx %
x$
bx #
bx "
bx !
$end
#1
b10000110011111 ;
1'
#2
b1 N
0'
#3
0K
b10 I
0$
0L
b0xxxxxxxxxxxxxx R
1'
#4
0'
#5
b10 Q
b0 P
b0 R
b11 8
b100001 9
1'
1)
b10 .
b0 -
b0 /
b11 %
b100001 &
b1100 +
b1100 3
b1 *
b1 2
b10000100000001100000000000000000000000000000000000000000000010 (
b10000100000001100000000000000000000000000000000000000000000010 0
0,
#6
b10 N
0'
#7
b10100 I
1'
#8
b10100 N
0'
#9
b1 I
b1100 5
1F
b0 G
b0 D
1$
1'
#10
b1 E
b1 N
0'
b10000011 %
b10100001 &
b0 +
b0 3
b1010000101000001100000000000000000000000000000000000000000000010 (
b1010000101000001100000000000000000000000000000000000000000000010 0
#11
b10 I
0$
b10000011 8
b10100001 9
1'
#12
b10 N
0'
#13
b1110 I
1'
#14
b1110 N
0'
#15
b1100 "
b1100 @
1$
b1 I
1'
#16
b1 N
0'
#17
b10 I
0$
1'
#18
b10 N
0'
#19
b1110 I
1'
#20
b1110 N
0'
#21
1$
b1 I
1'
#22
b1 N
0'
#23
b10 I
0$
1'
#24
b10 N
0'
#25
b1110 I
1'
#26
b1110 N
0'
#27
1$
b1 I
1'
#28
b1 N
0'
#29
b10 I
0$
1'
#30
b10 N
0'
#31
b1110 I
1'
#32
b1110 N
0'
#33
1$
b1 I
1'
#34
b1 N
0'
#35
b10 I
0$
1'
#36
b10 N
0'
#37
b1110 I
1'
#38
b1110 N
0'
#39
1$
b1 I
1'
#40
b1 N
0'
#41
b10 I
0$
1'
#42
b10 N
0'
#43
b1110 I
1'
#44
b1110 N
0'
#45
1$
b1 I
1'
#46
b1 N
0'
#47
b10 I
0$
1'
#48
b10 N
0'
#49
b1110 I
1'
#50
b1110 N
0'
#51
1$
b1 I
1'
#52
b1 N
0'
#53
b10 I
0$
1'
#54
b10 N
0'
#55
b1110 I
1'
#56
b1110 N
0'
#57
1$
b1 I
1'
#58
b1 N
0'
#59
b10 I
0$
1'
#60
b10 N
0'
#61
b1110 I
1'
#62
b1110 N
0'
#63
1$
b1 I
1'
#64
b1 N
0'
#65
b10 I
0$
1'
#66
b10 N
0'
#67
b1110 I
1'
#68
b1110 N
0'
#69
1$
b1 I
1'
#70
b1 N
0'
#71
b10 I
0$
1'
#72
b10 N
0'
#73
b1110 I
1'
#74
b1110 N
0'
#75
1$
b1 I
1'
#76
b1 N
0'
#77
b10 I
0$
1'
#78
b10 N
0'
#79
b1110 I
1'
#80
b1110 N
0'
#81
1$
b1 I
1'
#82
b1 N
0'
#83
b10 I
0$
1'
#84
b10 N
0'
#85
b1110 I
1'
#86
b1110 N
0'
#87
1$
b1 I
1'
#88
b1 N
0'
#89
b10 I
0$
1'
#90
b10 N
0'
#91
b1110 I
1'
#92
b1110 N
0'
#93
1$
b1 I
1'
#94
b1 N
0'
#95
b10 I
0$
1'
#96
b10 N
0'
#97
b1110 I
1'
#98
b1110 N
0'
#99
1$
b1 I
1'
#100
b1 N
0'
#101
b10 I
0$
1'
#102
b10 N
0'
#103
b1110 I
1'
#104
b1110 N
0'
#105
1$
b1 I
1'
#106
b1 N
0'
#107
b10 I
0$
1'
#108
b10 N
0'
#109
b1110 I
1'
#110
b1110 N
0'
#111
1$
b1 I
1'
#112
b1 N
0'
#113
b10 I
0$
1'
#114
b10 N
0'
#115
b1110 I
1'
#116
b1110 N
0'
#117
1$
b1 I
1'
#118
b1 N
0'
#119
b10 I
0$
1'
#120
b10 N
0'
#121
b1110 I
1'
#122
b1110 N
0'
#123
1$
b1 I
1'
#124
b1 N
0'
#125
b10 I
0$
1'
#126
b10 N
0'
#127
b1110 I
1'
#128
b1110 N
0'
#129
1$
b1 I
1'
#130
b1 N
0'
#131
b10 I
0$
1'
#132
b10 N
0'
#133
b1110 I
1'
#134
b1110 N
0'
#135
1$
b1 I
1'
#136
b1 N
0'
#137
b10 I
0$
1'
#138
b10 N
0'
#139
b1110 I
1'
#140
b1110 N
0'
#141
1$
b1 I
1'
#142
b1 N
0'
#143
b10 I
0$
1'
#144
b10 N
0'
#145
b1110 I
1'
#146
b1110 N
0'
#147
1$
b1 I
1'
#148
b1 N
0'
#149
b10 I
0$
1'
#150
b10 N
0'
#151
b1110 I
1'
#152
b1110 N
0'
#153
1$
b1 I
1'
#154
b1 N
0'
#155
b10 I
0$
1'
#156
b10 N
0'
#157
b1110 I
1'
#158
b1110 N
0'
#159
1$
b1 I
1'
#160
b1 N
0'
#161
b10 I
0$
1'
#162
b10 N
0'
#163
b1110 I
1'
#164
b1110 N
0'
#165
1$
b1 I
1'
#166
b1 N
0'
#167
b10 I
0$
1'
#168
b10 N
0'
#169
b1110 I
1'
#170
b1110 N
0'
#171
1$
b1 I
1'
#172
b1 N
0'
#173
b10 I
0$
1'
#174
b10 N
0'
#175
b1110 I
1'
#176
b1110 N
0'
#177
1$
b1 I
1'
#178
b1 N
0'
#179
b10 I
0$
1'
#180
b10 N
0'
#181
b1110 I
1'
#182
b1110 N
0'
#183
1$
b1 I
1'
#184
b1 N
0'
#185
b10 I
0$
1'
#186
b10 N
0'
#187
b1110 I
1'
#188
b1110 N
0'
#189
1$
b1 I
1'
#190
b1 N
0'
#191
b10 I
0$
1'
#192
b10 N
0'
#193
b1110 I
1'
#194
b1110 N
0'
#195
1$
b1 I
1'
#196
b1 N
0'
#197
b10 I
0$
1'
#198
b10 N
0'
#199
b1110 I
1'
#200
b1110 N
0'
#201
1$
b1 I
1'
#202
b1 N
0'
#203
b10 I
0$
1'
#204
b10 N
0'
#205
b1110 I
1'
#206
b1110 N
0'
#207
1$
b1 I
1'
#208
b1 N
0'
#209
b10 I
0$
1'
#210
b10 N
0'
#211
b1110 I
1'
#212
b1110 N
0'
#213
1$
b1 I
1'
#214
b1 N
0'
#215
b10 I
0$
1'
#216
b10 N
0'
#217
b1110 I
1'
#218
b1110 N
0'
#219
1$
b1 I
1'
#220
b1 N
0'
#221
b10 I
0$
1'
#222
b10 N
0'
#223
b1110 I
1'
#224
b1110 N
0'
#225
1$
b1 I
1'
#226
b1 N
0'
#227
b10 I
0$
1'
#228
b10 N
0'
#229
b1110 I
1'
#230
b1110 N
0'
#231
1$
b1 I
1'
#232
b1 N
0'
#233
b10 I
0$
1'
#234
b10 N
0'
#235
b1110 I
1'
#236
b1110 N
0'
#237
1$
b1 I
1'
#238
b1 N
0'
#239
b10 I
0$
1'
#240
b10 N
0'
#241
b1110 I
1'
#242
b1110 N
0'
#243
1$
b1 I
1'
#244
b1 N
0'
#245
b10 I
0$
1'
#246
b10 N
0'
#247
b1110 I
1'
#248
b1110 N
0'
#249
1$
b1 I
1'
#250
b1 N
0'
#251
b10 I
0$
1'
#252
b10 N
0'
#253
b1110 I
1'
#254
b1110 N
0'
#255
1$
b1 I
1'
#256
b1 N
0'
#257
b10 I
0$
1'
#258
b10 N
0'
#259
b1110 I
1'
#260
b1110 N
0'
#261
1$
b1 I
1'
#262
b1 N
0'
#263
b10 I
0$
1'
#264
b10 N
0'
#265
b1110 I
1'
#266
b1110 N
0'
#267
1$
b1 I
1'
#268
b1 N
0'
#269
b10 I
0$
1'
#270
b10 N
0'
#271
b1110 I
1'
#272
b1110 N
0'
#273
1$
b1 I
1'
#274
b1 N
0'
#275
b10 I
0$
1'
#276
b10 N
0'
#277
b1110 I
1'
#278
b1110 N
0'
#279
1$
b1 I
1'
#280
b1 N
0'
#281
b10 I
0$
1'
#282
b10 N
0'
#283
b1110 I
1'
#284
b1110 N
0'
#285
1$
b1 I
1'
#286
b1 N
0'
#287
b10 I
0$
1'
#288
b10 N
0'
#289
b1110 I
1'
#290
b1110 N
0'
#291
1$
b1 I
1'
#292
b1 N
0'
#293
b10 I
0$
1'
#294
b10 N
0'
#295
b1110 I
1'
#296
b1110 N
0'
#297
1$
b1 I
1'
#298
b1 N
0'
#299
b10 I
0$
1'
#300
b10 N
0'
#301
b1110 I
1'
#302
b1110 N
0'
#303
1$
b1 I
1'
#304
b1 N
0'
#305
b10 I
0$
1'
#306
b10 N
0'
#307
b1110 I
1'
#308
b1110 N
0'
#309
1$
b1 I
1'
#310
b1 N
0'
#311
b10 I
0$
1'
#312
b10 N
0'
#313
b1110 I
1'
#314
b1110 N
0'
#315
1$
b1 I
1'
#316
b1 N
0'
#317
b10 I
0$
1'
#318
b10 N
0'
#319
b1110 I
1'
#320
b1110 N
0'
#321
1$
b1 I
1'
#322
b1 N
0'
#323
b10 I
0$
1'
#324
b10 N
0'
#325
b1110 I
1'
#326
b1110 N
0'
#327
1$
b1 I
1'
#328
b1 N
0'
#329
b10 I
0$
1'
#330
b10 N
0'
#331
b1110 I
1'
#332
b1110 N
0'
#333
1$
b1 I
1'
#334
b1 N
0'
#335
b10 I
0$
1'
#336
b10 N
0'
#337
b1110 I
1'
#338
b1110 N
0'
#339
1$
b1 I
1'
#340
b1 N
0'
#341
b10 I
0$
1'
#342
b10 N
0'
#343
b1110 I
1'
#344
b1110 N
0'
#345
1$
b1 I
1'
#346
b1 N
0'
#347
b10 I
0$
1'
#348
b10 N
0'
#349
b1110 I
1'
#350
b1110 N
0'
#351
1$
b1 I
1'
#352
b1 N
0'
#353
b10 I
0$
1'
#354
b10 N
0'
#355
b1110 I
1'
#356
b1110 N
0'
#357
1$
b1 I
1'
#358
b1 N
0'
#359
b10 I
0$
1'
#360
b10 N
0'
#361
b1110 I
1'
#362
b1110 N
0'
#363
1$
b1 I
1'
#364
b1 N
0'
#365
b10 I
0$
1'
#366
b10 N
0'
#367
b1110 I
1'
#368
b1110 N
0'
#369
1$
b1 I
1'
#370
b1 N
0'
#371
b10 I
0$
1'
#372
b10 N
0'
#373
b1110 I
1'
#374
b1110 N
0'
#375
1$
b1 I
1'
#376
b1 N
0'
#377
b10 I
0$
1'
#378
b10 N
0'
#379
b1110 I
1'
#380
b1110 N
0'
#381
1$
b1 I
1'
#382
b1 N
0'
#383
b10 I
0$
1'
#384
b10 N
0'
#385
b1110 I
1'
#386
b1110 N
0'
#387
1$
b1 I
1'
#388
b1 N
0'
#389
b10 I
0$
1'
#390
b10 N
0'
#391
b1110 I
1'
#392
b1110 N
0'
#393
1$
b1 I
1'
#394
b1 N
0'
#395
b10 I
0$
1'
#396
b10 N
0'
#397
b1110 I
1'
#398
b1110 N
0'
#399
1$
b1 I
1'
#400
b1 N
0'
#401
b10 I
0$
1'
#402
b10 N
0'
#403
b1110 I
1'
#404
b1110 N
0'
#405
1$
b1 I
1'
#406
b1 N
0'
#407
b10 I
0$
1'
#408
b10 N
0'
#409
b1110 I
1'
#410
b1110 N
0'
#411
1$
b1 I
1'
#412
b1 N
0'
#413
b10 I
0$
1'
#414
b10 N
0'
#415
b1110 I
1'
#416
b1110 N
0'
#417
1$
b1 I
1'
#418
b1 N
0'
#419
b10 I
0$
1'
#420
b10 N
0'
#421
b1110 I
1'
#422
b1110 N
0'
#423
1$
b1 I
1'
#424
b1 N
0'
#425
b10 I
0$
1'
#426
b10 N
0'
#427
b1110 I
1'
#428
b1110 N
0'
#429
1$
b1 I
1'
#430
b1 N
0'
#431
b10 I
0$
1'
#432
b10 N
0'
#433
b1110 I
1'
#434
b1110 N
0'
#435
1$
b1 I
1'
#436
b1 N
0'
#437
b10 I
0$
1'
#438
b10 N
0'
#439
b1110 I
1'
#440
b1110 N
0'
#441
1$
b1 I
1'
#442
b1 N
0'
#443
b10 I
0$
1'
#444
b10 N
0'
#445
b1110 I
1'
#446
b1110 N
0'
#447
1$
b1 I
1'
#448
b1 N
0'
#449
b10 I
0$
1'
#450
b10 N
0'
#451
b1110 I
1'
#452
b1110 N
0'
#453
1$
b1 I
1'
#454
b1 N
0'
#455
b10 I
0$
1'
#456
b10 N
0'
#457
b1110 I
1'
#458
b1110 N
0'
#459
1$
b1 I
1'
#460
b1 N
0'
#461
b10 I
0$
1'
#462
b10 N
0'
#463
b1110 I
1'
#464
b1110 N
0'
#465
1$
b1 I
1'
#466
b1 N
0'
#467
b10 I
0$
1'
#468
b10 N
0'
#469
b1110 I
1'
#470
b1110 N
0'
#471
1$
b1 I
1'
#472
b1 N
0'
#473
b10 I
0$
1'
#474
b10 N
0'
#475
b1110 I
1'
#476
b1110 N
0'
#477
1$
b1 I
1'
#478
b1 N
0'
#479
b10 I
0$
1'
#480
b10 N
0'
#481
b1110 I
1'
#482
b1110 N
0'
#483
1$
b1 I
1'
#484
b1 N
0'
#485
b10 I
0$
1'
#486
b10 N
0'
#487
b1110 I
1'
#488
b1110 N
0'
#489
1$
b1 I
1'
#490
b1 N
0'
#491
b10 I
0$
1'
#492
b10 N
0'
#493
b1110 I
1'
#494
b1110 N
0'
#495
1$
b1 I
1'
#496
b1 N
0'
#497
b10 I
0$
1'
#498
b10 N
0'
#499
b1110 I
1'
#500
b1110 N
0'
#501
1$
b1 I
1'
#502
b1 N
0'
#503
b10 I
0$
1'
#504
b10 N
0'
#505
b1110 I
1'
#506
b1110 N
0'
#507
1$
b1 I
1'
#508
b1 N
0'
#509
b10 I
0$
1'
#510
b10 N
0'
#511
b1110 I
1'
#512
b1110 N
0'
#513
1$
b1 I
1'
#514
b1 N
0'
#515
b10 I
0$
1'
#516
b10 N
0'
#517
b1110 I
1'
#518
b1110 N
0'
#519
1$
b1 I
1'
#520
b1 N
0'
#521
b10 I
0$
1'
#522
b10 N
0'
#523
b1110 I
1'
